%YAML 1.1
%TAG !u! tag:unity3d.com,2011:
--- !u!114 &11400000
MonoBehaviour:
  m_ObjectHideFlags: 0
  m_PrefabParentObject: {fileID: 0}
  m_PrefabInternal: {fileID: 0}
  m_GameObject: {fileID: 0}
  m_Enabled: 1
  m_EditorHideFlags: 0
  m_Script: {fileID: 11500000, guid: 0beaf17d02719a74d9e347298b3d989a, type: 3}
  m_Name: 900-0_BrunnenHauptmarktStart
  m_EditorClassIdentifier: 
  ReplaceRouteState:
    p_DialogTextAsset:
      value: {fileID: 0}
    p_PersonName:
      value: Iustitia
    p_DialogBackground:
      value: {fileID: 2800000, guid: 9b145f4fb7973f145a1231332067d031, type: 3}
    p_DialogPartner:
      value: {fileID: 2800000, guid: 4c880b375fb593e49abb37cc7806bc3c, type: 3}
  NextNode: {fileID: 11400000, guid: 4acb527496e50fc40be7cfffef83a517, type: 2}
