%YAML 1.1
%TAG !u! tag:unity3d.com,2011:
--- !u!114 &11400000
MonoBehaviour:
  m_ObjectHideFlags: 0
  m_PrefabParentObject: {fileID: 0}
  m_PrefabInternal: {fileID: 0}
  m_GameObject: {fileID: 0}
  m_Enabled: 1
  m_EditorHideFlags: 0
  m_Script: {fileID: 11500000, guid: 82437f0ebef2ca44581dc614f2ad771f, type: 3}
  m_Name: 901-2_BrunnenHauptmarktStart 1
  m_EditorClassIdentifier: 
  DialogTextAsset: {fileID: 11400000, guid: 886e9e860429d484fa212e756f65b6a1, type: 2}
  NextNode: {fileID: 11400000, guid: b20ddad286950bf4ba0f01855d361de3, type: 2}
