%YAML 1.1
%TAG !u! tag:unity3d.com,2011:
--- !u!114 &11400000
MonoBehaviour:
  m_ObjectHideFlags: 0
  m_PrefabParentObject: {fileID: 0}
  m_PrefabInternal: {fileID: 0}
  m_GameObject: {fileID: 0}
  m_Enabled: 1
  m_EditorHideFlags: 0
  m_Script: {fileID: 11500000, guid: 82437f0ebef2ca44581dc614f2ad771f, type: 3}
  m_Name: 913_BrunnenHauptmarktIustitia
  m_EditorClassIdentifier: 
  DialogTextAsset: {fileID: 11400000, guid: 84272956c13b71d4b9241c7c213a2840, type: 2}
  NextNode: {fileID: 11400000, guid: 93296a45f0490c54cb4d350578c4ffc6, type: 2}
