%YAML 1.1
%TAG !u! tag:unity3d.com,2011:
--- !u!114 &11400000
MonoBehaviour:
  m_ObjectHideFlags: 0
  m_PrefabParentObject: {fileID: 0}
  m_PrefabInternal: {fileID: 0}
  m_GameObject: {fileID: 0}
  m_Enabled: 1
  m_EditorHideFlags: 0
  m_Script: {fileID: 11500000, guid: fdc4dbdb9844c194d8efc78a9d35f77e, type: 3}
  m_Name: Esch_0604.2
  m_EditorClassIdentifier: 
  DialogTextAsset: {fileID: 11400000, guid: 64bc5be07b6400d428df6c64c921e50e, type: 2}
  Options:
  - {fileID: 114177349789714094}
--- !u!114 &114177349789714094
MonoBehaviour:
  m_ObjectHideFlags: 0
  m_PrefabParentObject: {fileID: 0}
  m_PrefabInternal: {fileID: 0}
  m_GameObject: {fileID: 0}
  m_Enabled: 1
  m_EditorHideFlags: 0
  m_Script: {fileID: 11500000, guid: 5cd55caa3a6046c45bf4ef628a274990, type: 3}
  m_Name: -51928
  m_EditorClassIdentifier: 
  OptionTextAsset: {fileID: 11400000, guid: cacba9fd6bfe3044f873439daf2a7447, type: 2}
  NextNode: {fileID: 11400000, guid: d6e46b2bbc8249d4280f99d3e4932a5a, type: 2}
--- !u!114 &114914489470642814
MonoBehaviour:
  m_ObjectHideFlags: 0
  m_PrefabParentObject: {fileID: 0}
  m_PrefabInternal: {fileID: 0}
  m_GameObject: {fileID: 0}
  m_Enabled: 1
  m_EditorHideFlags: 0
  m_Script: {fileID: 11500000, guid: 5cd55caa3a6046c45bf4ef628a274990, type: 3}
  m_Name: -20740
  m_EditorClassIdentifier: 
  OptionTextAsset: {fileID: 0}
  NextNode: {fileID: 0}
