%YAML 1.1
%TAG !u! tag:unity3d.com,2011:
--- !u!114 &11400000
MonoBehaviour:
  m_ObjectHideFlags: 0
  m_PrefabParentObject: {fileID: 0}
  m_PrefabInternal: {fileID: 0}
  m_GameObject: {fileID: 0}
  m_Enabled: 1
  m_EditorHideFlags: 0
  m_Script: {fileID: 11500000, guid: 0beaf17d02719a74d9e347298b3d989a, type: 3}
  m_Name: Esch_0602-0
  m_EditorClassIdentifier: 
  ReplaceRouteState:
    p_DialogTextAsset:
      value: {fileID: 0}
    p_PersonName:
      value: Komischer Typ
    p_DialogBackground:
      value: {fileID: 2800000, guid: 6c28c42c6c5c9024285618c1846ce64c, type: 3}
    p_DialogPartner:
      value: {fileID: 2800000, guid: ec368f632027a904f8837ccfaf13a838, type: 3}
  LocalizedPersonName: {fileID: 11400000, guid: 1f18cef0b44c6be4f9c043bcfe98e164,
    type: 2}
  NextNode: {fileID: 11400000, guid: b131b7f68ab773140a82460287daac38, type: 2}
