%YAML 1.1
%TAG !u! tag:unity3d.com,2011:
--- !u!114 &11400000
MonoBehaviour:
  m_ObjectHideFlags: 0
  m_PrefabParentObject: {fileID: 0}
  m_PrefabInternal: {fileID: 0}
  m_GameObject: {fileID: 0}
  m_Enabled: 1
  m_EditorHideFlags: 0
  m_Script: {fileID: 11500000, guid: 82437f0ebef2ca44581dc614f2ad771f, type: 3}
  m_Name: Esch_0602.0
  m_EditorClassIdentifier: 
  DialogTextAsset: {fileID: 11400000, guid: 575424a103ac5724d9120e227f0a99af, type: 2}
  NextNode: {fileID: 11400000, guid: 146561f1697a0104c992cdff93e6f055, type: 2}
