%YAML 1.1
%TAG !u! tag:unity3d.com,2011:
--- !u!114 &11400000
MonoBehaviour:
  m_ObjectHideFlags: 0
  m_PrefabParentObject: {fileID: 0}
  m_PrefabInternal: {fileID: 0}
  m_GameObject: {fileID: 0}
  m_Enabled: 1
  m_EditorHideFlags: 0
  m_Script: {fileID: 11500000, guid: 25324db15d86dee449e3a6a1cb393b33, type: 3}
  m_Name: TR_0504.2_KMH
  m_EditorClassIdentifier: 
  Handle: TR_0504.2_KMH
  __EdTranslations:
  - locale: de
    translation: "Ein Gleichgesinnter! Wir sind so aufgewachsen und so erzogen worden,
      Besitz einen hohen Wert zuzuweisen. Umso spannender ist es, junge Leute zu sehen,
      die die Problematik verstehen!###Ich danke Dir f\xFCr das angeregte Gespr\xE4ch
      und hoffe, dass ich Dich ein bisschen zum Nachdenken bringen konnte. Aber wir
      d\xFCrfen nicht vergessen, dass wir eine wichtige Aufgabe zu erf\xFCllen haben.
      Also lass uns weiter machen!"
  - locale: fr
    translation: "Tu partages mes id\xE9es ! Notre \xE9ducation nous a appris \xE0
      attribuer une grande importance \xE0 la propri\xE9t\xE9. C\u2019est d\u2019autant
      plus passionnant de voir de jeunes gens qui comprennent la probl\xE9matique
      !### Je te remercie pour ce d\xE9bat anim\xE9 et j\u2019esp\xE8re t\u2019avoir
      incit\xE9 \xE0 r\xE9fl\xE9chir. Mais n\u2019oublions pas que nous avons une
      mission importante \xE0 accomplir. Viens, il nous devons continuer !"
  - locale: lb
    translation: "E Gl\xE4ichges\xEBnnten! Mir sinn esou opgewuess an esou erzu ginn,
      dem Bes\xEBtz en h\xE9ije W\xE4ert unzerechnen. 'T ass \xEBmsou m\xE9i spannend,
      jonk Leit ze gesinn, d\xE9i d\xE9i Problematik verstinn!###Ech soen dir Merci
      fir dat anim\xE9iert Gespr\xE9ich an hoffen, datt ech dech e b\xEBssen zum Nodenke
      br\xE9nge konnt. M\xE4 mir dierfen net vergiessen, datt mir eng wichteg Aufgab
      z'erf\xEBllen hunn. Also looss eis weider maachen!"
  - locale: en
    translation: A like-minded person! We are brought up and taught to assign a high
      value to possession. All the more exciting to see young people who understand
      the difficulty!###I thank you for your lively discussion and I hope that I was
      able to make you reflect on it. But we must not forget that we have an important
      task to fulfil. So let's continue!
