%YAML 1.1
%TAG !u! tag:unity3d.com,2011:
--- !u!114 &11400000
MonoBehaviour:
  m_ObjectHideFlags: 0
  m_PrefabParentObject: {fileID: 0}
  m_PrefabInternal: {fileID: 0}
  m_GameObject: {fileID: 0}
  m_Enabled: 1
  m_EditorHideFlags: 0
  m_Script: {fileID: 11500000, guid: 25324db15d86dee449e3a6a1cb393b33, type: 3}
  m_Name: TR_0902.2_PB_O
  m_EditorClassIdentifier: 
  Handle: TR_0902.2_PB_O
  __EdTranslations:
  - locale: de
    translation: Karl Marx hat mich geschickt.
  - locale: fr
    translation: "Oui ! C\u2019est Karl Marx qui m\u2019envoie !"
  - locale: lb
    translation: "Jo! De Karl Marx sch\xE9ckt mech!"
  - locale: en
    translation: Yes! Karl Marx sent me!
