%YAML 1.1
%TAG !u! tag:unity3d.com,2011:
--- !u!114 &11400000
MonoBehaviour:
  m_ObjectHideFlags: 0
  m_PrefabParentObject: {fileID: 0}
  m_PrefabInternal: {fileID: 0}
  m_GameObject: {fileID: 0}
  m_Enabled: 1
  m_EditorHideFlags: 0
  m_Script: {fileID: 11500000, guid: 25324db15d86dee449e3a6a1cb393b33, type: 3}
  m_Name: TR_0102.0_HWB1
  m_EditorClassIdentifier: 
  Handle: TR_0102.0_HWB1
  __EdTranslations:
  - locale: de
    translation: "Du bist tatkr\xE4ftig, das ist gut! Genau das brauchen wir jetzt!\r\nWir
      m\xFCssen Nero aufhalten, bevor er es schafft, ganz Trier niederzubrennen! Ich
      werde verschiedene Portale in die Vergangenheit \xF6ffnen. Derweil brauche ich
      viele junge und eifrige Menschen wie Dich, die mir helfen, denn alleine kann
      ich es unm\xF6glich schaffen.###In ganz Trier stehen \xFCberall Brunnen. Nimm
      diese Eimer, f\xFClle sie und dann l\xF6sche die Feuer am Dom, am alten Rathaus
      am Kornmarkt, an der Basilika und am Hochbunker!###Das Spiel wird Dir den Weg
      weisen. Wir m\xFCssen Nero aufhalten! Loslos, f\xFCr mehr Gerede ist jetzt keine
      Zeit!"
  - locale: fr
    translation: "Tu es tr\xE8s motiv\xE9, c\u2019est parfait ! C\u2019est exactement
      ce qu\u2019il nous faut !Nous devons arr\xEAter N\xE9ron avant qu\u2019il ne
      br\xFBle toute la ville de Tr\xE8ves ! Je vais ouvrir plusieurs portails vers
      le pass\xE9.###Pour cela, j\u2019ai besoin de beaucoup de jeunes gens volontaires
      comme toi pour m\u2019aider, car tout seul, je n\u2019y arriverai jamais.###Dans
      Tr\xE8ves, il y a des fontaines partout. Prends ces seaux, remplis-les d\u2019eau
      et \xE9teins les flammes de la cath\xE9drale Saint-Pierre, de l\u2019ancien
      h\xF4tel de ville situ\xE9 sur la place Kornmarkt, de la basilique de Constantin
      et du Hochbunker !###Le jeu t\u2019indiquera le chemin. Nous devons arr\xEAter
      N\xE9ron ! Allez, allez ! Assez parl\xE9, nous n\u2019avons pas de temps \xE0
      perdre !"
  - locale: lb
    translation: "Du bass motiv\xE9iert, dat ass gutt! Genau dat brauche mir elo!
      Mir mussen den Nero stoppen, ier hien et f\xE4erdeg br\xE9ngt ganz Tr\xE9ier
      ofzebrennen! Ech maache verschidde Portaler an d'Vergaangenheet op. Dofir brauch
      ech vill jonk an \xE4ifreg M\xEBnsche w\xE9i s du d\xE9i mir h\xEBllefen, well
      eleng kr\xE9ien ech dat s\xE9cher net hin.###D'Spill weist dir de Wee. Mir mussen
      den Nero stoppen! Dajee, dajee, keng Z\xE4it fir vill ze schw\xE4tzen!"
  - locale: en
    translation: You are energetic, that's good! Exactly what we need now! We must
      stop Nero before he manages to burn down all of Trier! I will open various portals
      into the past. Meanwhile I need lots of young and enthusiastic people like you
      to help me, because I can't possibly manage on my own.###All over Trier, there
      are wells everywhere. Take these buckets, fill them up and put out the fires
      at the cathedral, at the old town hall, at the Basilica, and at the air-raid
      shelter!###The game will show you the way. We need to stop Nero! Go, go, go,
      there's no time for any more discussion!
