%YAML 1.1
%TAG !u! tag:unity3d.com,2011:
--- !u!114 &11400000
MonoBehaviour:
  m_ObjectHideFlags: 0
  m_PrefabParentObject: {fileID: 0}
  m_PrefabInternal: {fileID: 0}
  m_GameObject: {fileID: 0}
  m_Enabled: 1
  m_EditorHideFlags: 0
  m_Script: {fileID: 11500000, guid: 25324db15d86dee449e3a6a1cb393b33, type: 3}
  m_Name: TR_0501.1_KMH_O
  m_EditorClassIdentifier: 
  Handle: TR_0501.1_KMH_O
  __EdTranslations:
  - locale: de
    translation: Was stimmt mit der Gesellschaft nicht?
  - locale: fr
    translation: "Mais quels sont les probl\xE8mes de la soci\xE9t\xE9 ?"
  - locale: lb
    translation: "Wat st\xEBmmt dann net mat der Gesellschaft?"
  - locale: en
    translation: What's not quite right with society here then?
