%YAML 1.1
%TAG !u! tag:unity3d.com,2011:
--- !u!114 &11400000
MonoBehaviour:
  m_ObjectHideFlags: 0
  m_PrefabParentObject: {fileID: 0}
  m_PrefabInternal: {fileID: 0}
  m_GameObject: {fileID: 0}
  m_Enabled: 1
  m_EditorHideFlags: 0
  m_Script: {fileID: 11500000, guid: 25324db15d86dee449e3a6a1cb393b33, type: 3}
  m_Name: TR_0903.0_PB
  m_EditorClassIdentifier: 
  Handle: TR_0903.0_PB
  __EdTranslations:
  - locale: de
    translation: "Karl Marx also... Er steckt hinter der Rettungsaktion der Trierer
      Br\xE4nde. Jahrhundertelang haben wir uns dar\xFCber den Kopf zerbrochen. Jetzt
      wird uns einiges klar.###Und \xFCberhaupt... Karl Marx gegen Nero. Was f\xFCr
      eine ungew\xF6hnliche Kombination."
  - locale: fr
    translation: "Ah, c\u2019est donc Karl Marx qui orchestre ces op\xE9rations de
      sauvetage. Pendant des si\xE8cles, on s\u2019est creus\xE9 la t\xEAte pour comprendre.
      Maintenant, tout s\u2019explique.###Mais au fait\u2026 Karl Marx contre N\xE9ron,
      c\u2019est une combinaison insolite."
  - locale: lb
    translation: "T ass also de Karl Marx... Hie st\xE9cht hannert de Rettungsaktioune
      vun den Tr\xE9ierer Br\xE4nn. Joerhonnertelaang hu mir eis doriwwer de Kapp
      zerbrach. Elo g\xEBtt eis esou munches kloer.###An iwwerhaapt... De Karl Marx
      g\xE9int den Nero. Wat fir eng ongew\xE9inlech Kombinatioun."
  - locale: en
    translation: Well, well... Karl Marx. He is behind the rescue missions of the
      Trier fires. For centuries we have been racking our brains. Now some things
      are becoming clear.###Anyway... Karl Marx against Nero. What an odd match.
