%YAML 1.1
%TAG !u! tag:unity3d.com,2011:
--- !u!114 &11400000
MonoBehaviour:
  m_ObjectHideFlags: 0
  m_PrefabParentObject: {fileID: 0}
  m_PrefabInternal: {fileID: 0}
  m_GameObject: {fileID: 0}
  m_Enabled: 1
  m_EditorHideFlags: 0
  m_Script: {fileID: 11500000, guid: 25324db15d86dee449e3a6a1cb393b33, type: 3}
  m_Name: TR_0801.2_GS
  m_EditorClassIdentifier: 
  Handle: TR_0801.2_GS
  __EdTranslations:
  - locale: de
    translation: "Wie ich schon sagte, diese Melodie soll die Kardinaltugenden besonders
      gl\xFCcklich stimmen. Ich denke, sie k\xF6nnten Euch beim L\xF6schen des Doms
      weiterhelfen."
  - locale: fr
    translation: "Comme je disais, cette m\xE9lodie procure un grand bonheur aux vertus
      cardinales. Je pense qu\u2019elles pourraient vous aider \xE0 \xE9teindre les
      flammes de la cath\xE9drale (Dom)."
  - locale: lb
    translation: "W\xE9i gesot soll d\xE9i Melodie d'Kardinaldugende besonnesch gl\xE9cklech
      st\xEBmmen. Ech menge si k\xE9inten iech beim L\xE4sche vum Doum weiderh\xEBllefen."
  - locale: en
    translation: As I said already, this melody is supposed to make the cardinal virtues
      particularly happy. I think they could help you put out the fire on the cathedral.
