%YAML 1.1
%TAG !u! tag:unity3d.com,2011:
--- !u!114 &11400000
MonoBehaviour:
  m_ObjectHideFlags: 0
  m_PrefabParentObject: {fileID: 0}
  m_PrefabInternal: {fileID: 0}
  m_GameObject: {fileID: 0}
  m_Enabled: 1
  m_EditorHideFlags: 0
  m_Script: {fileID: 11500000, guid: 25324db15d86dee449e3a6a1cb393b33, type: 3}
  m_Name: TR_0701.0_AR
  m_EditorClassIdentifier: 
  Handle: TR_0701.0_AR
  __EdTranslations:
  - locale: de
    translation: "<i>Gute Arbeit! Das Feuer ist gel\xF6scht! Weiter gehts!</i>"
  - locale: fr
    translation: "<i>Tu as \xE9teint le feu ! Bon travail ! Mais ce n\u2019est pas
      fini !</i>"
  - locale: lb
    translation: "<i>Du hues d'Feier gel\xE4scht! Gutt geschafft! M\xE4 't ass nach
      net eriwwer!</i>"
  - locale: en
    translation: <i>You have put out the fire! Great work! But it's not over yet!</i>
