%YAML 1.1
%TAG !u! tag:unity3d.com,2011:
--- !u!114 &11400000
MonoBehaviour:
  m_ObjectHideFlags: 0
  m_PrefabParentObject: {fileID: 0}
  m_PrefabInternal: {fileID: 0}
  m_GameObject: {fileID: 0}
  m_Enabled: 1
  m_EditorHideFlags: 0
  m_Script: {fileID: 11500000, guid: 25324db15d86dee449e3a6a1cb393b33, type: 3}
  m_Name: TR_0510.0_KMH_O
  m_EditorClassIdentifier: 
  Handle: TR_0510.0_KMH_O
  __EdTranslations:
  - locale: de
    translation: Woher wissen Sie das alles?
  - locale: fr
    translation: "Comment savez-vous tout \xE7a ?"
  - locale: lb
    translation: "W\xE9i w\xEBsst Dir dat alles?"
  - locale: en
    translation: How do you know all this?
