%YAML 1.1
%TAG !u! tag:unity3d.com,2011:
--- !u!114 &11400000
MonoBehaviour:
  m_ObjectHideFlags: 0
  m_PrefabParentObject: {fileID: 0}
  m_PrefabInternal: {fileID: 0}
  m_GameObject: {fileID: 0}
  m_Enabled: 1
  m_EditorHideFlags: 0
  m_Script: {fileID: 11500000, guid: 25324db15d86dee449e3a6a1cb393b33, type: 3}
  m_Name: TR_0800.0_GS
  m_EditorClassIdentifier: 
  Handle: TR_0800.0_GS
  __EdTranslations:
  - locale: de
    translation: "Willkommen auf dem Hauptmarkt. Wenn Ihr hoch schaut, seht Ihr das
      Glockenspiel. Seit 2003 steht es hier und t\xF6nt zu jeder vollen Stunde eine
      sch\xF6ne Melodie!###Ich habe geh\xF6rt, dass ein ganz besonderes Musikst\xFCck
      die Kardinaltugenden erfreut."
  - locale: fr
    translation: "Bienvenue sur la Place du March\xE9. Si vous levez les yeux, vous
      voyez le carillon. Il existe depuis 2003 et \xE0 chaque heure, il joue une belle
      m\xE9lodie !###J\u2019ai entendu dire qu\u2019un des morceaux de musique r\xE9jouit
      en particulier les vertus cardinales."
  - locale: lb
    translation: "W\xEBllkomm um Haaptmaart. Wann dir erop kuckt, gesitt dir d'Klackespill.
      S\xE4it 2003 steet et hei an laut bei all voller Stonn eng sch\xE9i Melodie!###Ech
      hunn h\xE9ieren, datt e ganz besonnescht Museksst\xE9ck d'Kardinaldugenden erfreet."
  - locale: en
    translation: Welcome to the Central Market. If you look up you will see the church
      bell tower. It's been here since 2003 and plays a lovely tune every hour, on
      the hour!###I've heard that the cardinal virtues are quite fond of a very special
      piece of music.
