%YAML 1.1
%TAG !u! tag:unity3d.com,2011:
--- !u!114 &11400000
MonoBehaviour:
  m_ObjectHideFlags: 0
  m_PrefabParentObject: {fileID: 0}
  m_PrefabInternal: {fileID: 0}
  m_GameObject: {fileID: 0}
  m_Enabled: 1
  m_EditorHideFlags: 0
  m_Script: {fileID: 11500000, guid: 25324db15d86dee449e3a6a1cb393b33, type: 3}
  m_Name: TR_0501.2_KMH
  m_EditorClassIdentifier: 
  Handle: TR_0501.2_KMH
  __EdTranslations:
  - locale: de
    translation: "Ohje, wie unh\xF6flich von mir, ich habe mich nicht einmal richtig
      vorgestellt. Mein Name ist Karl Marx. Ich bin hier, in Trier, im Jahre 1818
      \ geboren worden. Jetzt bin ich Schriftsteller und Philosoph.###Mein Leben lang
      habe ich mich mit der immer st\xE4rker werdenden Industrialisierung besch\xE4ftigt
      und damit, wie die Reichen immer reicher werden und die Armen immer \xE4rmer
      werden. Tats\xE4chlich habe ich gerade meine Gedanken dazu aufgeschrieben, als
      ich auf Neros schlimme Taten aufmerksam wurde."
  - locale: fr
    translation: "Oh l\xE0 l\xE0, comme je suis malpoli, je ne me suis m\xEAme pas
      pr\xE9sent\xE9. Je m\u2019appelle Karl Marx. Je suis n\xE9 ici, \xE0 Tr\xE8ves,
      en 1818. Je suis \xE9crivain et philosophe.###Toute ma vie, j\u2019ai \xE9t\xE9
      pr\xE9occup\xE9 par l\u2019industrialisation qui devenait de plus en plus importante.
      J\u2019ai vu les riches devenir de plus en plus riches, et les pauvres, de plus
      en plus pauvres.###J\u2019\xE9tais en train de r\xE9diger mes pens\xE9es \xE0
      ce sujet quand j\u2019ai d\xE9couvert les terribles agissements de N\xE9ron."
  - locale: lb
    translation: "Oh nee, w\xE9i onh\xE9iflech vu mir, ech hu mech mol net richteg
      virgestallt. M\xE4in Numm ass Karl Marx. Ech sinn am Joer 1818 hei zu Tr\xE9ier
      gebuer. Elo sinn ech Schr\xEBftsteller a Philosoph.###M\xE4i Liewe laang hunn
      ech mech domat besch\xE4ftegt, w\xE9i d'Industrialis\xE9ierung \xEBmmer m\xE9i
      zouh\xEBlt a w\xE9i d\xE9i R\xE4ich \xEBmmer m\xE9i r\xE4ich, an d\xE9i Aarm
      \xEBmmer m\xE9i aarm ginn.###Tats\xE4chlech war ech grad am Gaange meng Gedanken
      dozou opzeschreiwen, wou ech op dem Nero seng schl\xEBmm Handlungen opmierksam
      gouf."
  - locale: en
    translation: Oh, how rude of me, I haven't even properly introduced myself! My
      name is Karl Marx. I was born here in Trier in 1818. Now I am a writer and philosopher.###My
      whole life I have focussed on the ever stronger industrialisation and particularly
      how the rich always get richer and the poor always get poorer. I was actually
      just writing my thoughts down when I found out about Nero's wrongdoings.
