%YAML 1.1
%TAG !u! tag:unity3d.com,2011:
--- !u!114 &11400000
MonoBehaviour:
  m_ObjectHideFlags: 0
  m_PrefabParentObject: {fileID: 0}
  m_PrefabInternal: {fileID: 0}
  m_GameObject: {fileID: 0}
  m_Enabled: 1
  m_EditorHideFlags: 0
  m_Script: {fileID: 11500000, guid: 25324db15d86dee449e3a6a1cb393b33, type: 3}
  m_Name: TR_1506.0_NEU
  m_EditorClassIdentifier: 
  Handle: TR_1506.0_NEU
  __EdTranslations:
  - locale: de
    translation: Oh doch, du Schurke! Und wir sind zu viele! Du kannst nichts tun,
      um uns aufzuhalten!
  - locale: fr
    translation: "Oh si, esp\xE8ce de crapule ! Et nous sommes trop nombreux ! Tu
      ne peux pas nous arr\xEAter !"
  - locale: lb
    translation: "Oh dach, du Kr\xE4tzbock! A mir sinn zu vill! Du kanns n\xE4ischt
      maachen, fir eis opzehalen!"
  - locale: en
    translation: Oh, but it is, you scoundrel! And there are too many of us! There
      is nothing you can do to stop us!
