%YAML 1.1
%TAG !u! tag:unity3d.com,2011:
--- !u!114 &11400000
MonoBehaviour:
  m_ObjectHideFlags: 0
  m_PrefabParentObject: {fileID: 0}
  m_PrefabInternal: {fileID: 0}
  m_GameObject: {fileID: 0}
  m_Enabled: 1
  m_EditorHideFlags: 0
  m_Script: {fileID: 11500000, guid: 25324db15d86dee449e3a6a1cb393b33, type: 3}
  m_Name: TR_1404.0_HWB_O1
  m_EditorClassIdentifier: 
  Handle: TR_1404.0_HWB_O1
  __EdTranslations:
  - locale: de
    translation: "Er n\xE4ht."
  - locale: fr
    translation: Il coud.
  - locale: lb
    translation: "N\xE9ien."
  - locale: en
    translation: He sews.
