%YAML 1.1
%TAG !u! tag:unity3d.com,2011:
--- !u!114 &11400000
MonoBehaviour:
  m_ObjectHideFlags: 0
  m_PrefabParentObject: {fileID: 0}
  m_PrefabInternal: {fileID: 0}
  m_GameObject: {fileID: 0}
  m_Enabled: 1
  m_EditorHideFlags: 0
  m_Script: {fileID: 11500000, guid: 25324db15d86dee449e3a6a1cb393b33, type: 3}
  m_Name: TR_1401.2_HWB
  m_EditorClassIdentifier: 
  Handle: TR_1401.2_HWB
  __EdTranslations:
  - locale: de
    translation: "Ja. Ein letzter Brand ist an der Marktbasilika in der jetzigen Neustra\xDFe.
      Daf\xFCr m\xFCssen wir uns in Neros Zeit zur\xFCckbegeben und gemeinsam das
      Feuer l\xF6schen."
  - locale: fr
    translation: "Oui. Il y a un dernier incendie \xE0 la Marktbasilika, rue Neustra\xDFe.
      Nous devons retourner ensemble \xE0 l\u2019\xE9poque de N\xE9ron pour \xE9teindre
      les flammes."
  - locale: lb
    translation: "Jo. E leschte Brand an der Maartbasilika an der haiteger Neistrooss.
      Dofir musse mir zr\xE9ck an dem Nero seng Z\xE4it goen an zesummen d'Feier l\xE4schen."
  - locale: en
    translation: Yes. There is one final fire at the Market Basilica on the now-named
      New Street. So we have to go back to Nero's time and put out the fire together.
