%YAML 1.1
%TAG !u! tag:unity3d.com,2011:
--- !u!114 &11400000
MonoBehaviour:
  m_ObjectHideFlags: 0
  m_PrefabParentObject: {fileID: 0}
  m_PrefabInternal: {fileID: 0}
  m_GameObject: {fileID: 0}
  m_Enabled: 1
  m_EditorHideFlags: 0
  m_Script: {fileID: 11500000, guid: fdc4dbdb9844c194d8efc78a9d35f77e, type: 3}
  m_Name: Esch_0502.0
  m_EditorClassIdentifier: 
  DialogTextAsset: {fileID: 11400000, guid: 694f04e592b721545878aed3fe848a02, type: 2}
  Options:
  - {fileID: 114943696256163046}
--- !u!114 &114943696256163046
MonoBehaviour:
  m_ObjectHideFlags: 0
  m_PrefabParentObject: {fileID: 0}
  m_PrefabInternal: {fileID: 0}
  m_GameObject: {fileID: 0}
  m_Enabled: 1
  m_EditorHideFlags: 0
  m_Script: {fileID: 11500000, guid: 5cd55caa3a6046c45bf4ef628a274990, type: 3}
  m_Name: -41528
  m_EditorClassIdentifier: 
  OptionTextAsset: {fileID: 11400000, guid: 94f67e32d0faa1142b8525d5b6c99a3d, type: 2}
  NextNode: {fileID: 11400000, guid: d439f8cd1b5da9e41bd5e3ad49bbbf80, type: 2}
