%YAML 1.1
%TAG !u! tag:unity3d.com,2011:
--- !u!114 &11400000
MonoBehaviour:
  m_ObjectHideFlags: 0
  m_PrefabParentObject: {fileID: 0}
  m_PrefabInternal: {fileID: 0}
  m_GameObject: {fileID: 0}
  m_Enabled: 1
  m_EditorHideFlags: 0
  m_Script: {fileID: 11500000, guid: 82437f0ebef2ca44581dc614f2ad771f, type: 3}
  m_Name: Esch_0101.2
  m_EditorClassIdentifier: 
  DialogTextAsset: {fileID: 11400000, guid: 9cdc99725ba3b7c4999c8402b549175f, type: 2}
  NextNode: {fileID: 0}
