%YAML 1.1
%TAG !u! tag:unity3d.com,2011:
--- !u!114 &11400000
MonoBehaviour:
  m_ObjectHideFlags: 0
  m_PrefabParentObject: {fileID: 0}
  m_PrefabInternal: {fileID: 0}
  m_GameObject: {fileID: 0}
  m_Enabled: 1
  m_EditorHideFlags: 0
  m_Script: {fileID: 11500000, guid: 82437f0ebef2ca44581dc614f2ad771f, type: 3}
  m_Name: Trier_1504.0
  m_EditorClassIdentifier: 
  DialogTextAsset: {fileID: 11400000, guid: 73f381447f806ae40b5c08df45a76ec0, type: 2}
  NextNode: {fileID: 11400000, guid: 2c0c044a43c38df46912350076a58e51, type: 2}
