%YAML 1.1
%TAG !u! tag:unity3d.com,2011:
--- !u!114 &11400000
MonoBehaviour:
  m_ObjectHideFlags: 0
  m_PrefabParentObject: {fileID: 0}
  m_PrefabInternal: {fileID: 0}
  m_GameObject: {fileID: 0}
  m_Enabled: 1
  m_EditorHideFlags: 0
  m_Script: {fileID: 11500000, guid: fdc4dbdb9844c194d8efc78a9d35f77e, type: 3}
  m_Name: 100_HandwerkerbrunnenStart
  m_EditorClassIdentifier: 
  DialogTextAsset: {fileID: 11400000, guid: b66f6d27cc510ed42b32123b7f4f4614, type: 2}
  Options:
  - {fileID: 114090729031922022}
--- !u!114 &114090729031922022
MonoBehaviour:
  m_ObjectHideFlags: 0
  m_PrefabParentObject: {fileID: 0}
  m_PrefabInternal: {fileID: 0}
  m_GameObject: {fileID: 0}
  m_Enabled: 1
  m_EditorHideFlags: 0
  m_Script: {fileID: 11500000, guid: 5cd55caa3a6046c45bf4ef628a274990, type: 3}
  m_Name: -125882
  m_EditorClassIdentifier: 
  OptionTextAsset: {fileID: 11400000, guid: e6052e8f451023f428c729c905b7b6de, type: 2}
  NextNode: {fileID: 11400000, guid: dd06b16a694c2e946b7c392f67ae1b92, type: 2}
