%YAML 1.1
%TAG !u! tag:unity3d.com,2011:
--- !u!114 &11400000
MonoBehaviour:
  m_ObjectHideFlags: 0
  m_PrefabParentObject: {fileID: 0}
  m_PrefabInternal: {fileID: 0}
  m_GameObject: {fileID: 0}
  m_Enabled: 1
  m_EditorHideFlags: 0
  m_Script: {fileID: 11500000, guid: fdc4dbdb9844c194d8efc78a9d35f77e, type: 3}
  m_Name: 101_HandwerkerbrunnenStart
  m_EditorClassIdentifier: 
  DialogTextAsset: {fileID: 11400000, guid: af27c3c1c9075e2418ff8109d15e6f76, type: 2}
  Options:
  - {fileID: 114090729031922022}
  - {fileID: 114216500241280212}
--- !u!114 &114090729031922022
MonoBehaviour:
  m_ObjectHideFlags: 0
  m_PrefabParentObject: {fileID: 0}
  m_PrefabInternal: {fileID: 0}
  m_GameObject: {fileID: 0}
  m_Enabled: 1
  m_EditorHideFlags: 0
  m_Script: {fileID: 11500000, guid: 5cd55caa3a6046c45bf4ef628a274990, type: 3}
  m_Name: -125882
  m_EditorClassIdentifier: 
  OptionTextAsset: {fileID: 11400000, guid: dc43778be861c7d4db3402aa4c0e87fe, type: 2}
  NextNode: {fileID: 11400000, guid: fc2835a8b3df69843967be5d61d9adc0, type: 2}
--- !u!114 &114216500241280212
MonoBehaviour:
  m_ObjectHideFlags: 0
  m_PrefabParentObject: {fileID: 0}
  m_PrefabInternal: {fileID: 0}
  m_GameObject: {fileID: 0}
  m_Enabled: 1
  m_EditorHideFlags: 0
  m_Script: {fileID: 11500000, guid: 5cd55caa3a6046c45bf4ef628a274990, type: 3}
  m_Name: -115806
  m_EditorClassIdentifier: 
  OptionTextAsset: {fileID: 11400000, guid: 67ded15134a1aad48b5b06ff234d911a, type: 2}
  NextNode: {fileID: 11400000, guid: bea3b9a8f662e2f44b4446fea0d26fe5, type: 2}
