%YAML 1.1
%TAG !u! tag:unity3d.com,2011:
--- !u!114 &11400000
MonoBehaviour:
  m_ObjectHideFlags: 0
  m_PrefabParentObject: {fileID: 0}
  m_PrefabInternal: {fileID: 0}
  m_GameObject: {fileID: 0}
  m_Enabled: 1
  m_EditorHideFlags: 0
  m_Script: {fileID: 11500000, guid: 82437f0ebef2ca44581dc614f2ad771f, type: 3}
  m_Name: Trier_0504.1
  m_EditorClassIdentifier: 
  DialogTextAsset: {fileID: 11400000, guid: 11ff3d680ec9aec4eb802ab979662273, type: 2}
  NextNode: {fileID: 11400000, guid: 76547159c385ac7448b16a6df55ad1a9, type: 2}
