%YAML 1.1
%TAG !u! tag:unity3d.com,2011:
--- !u!114 &11400000
MonoBehaviour:
  m_ObjectHideFlags: 0
  m_PrefabParentObject: {fileID: 0}
  m_PrefabInternal: {fileID: 0}
  m_GameObject: {fileID: 0}
  m_Enabled: 1
  m_EditorHideFlags: 0
  m_Script: {fileID: 11500000, guid: fdc4dbdb9844c194d8efc78a9d35f77e, type: 3}
  m_Name: Trier_0100.0
  m_EditorClassIdentifier: 
  DialogTextAsset: {fileID: 11400000, guid: d11efcaf0c7e01c4b8523f9c316075e2, type: 2}
  Options:
  - {fileID: 114090729031922022}
  - {fileID: 114386533473782668}
--- !u!114 &114090729031922022
MonoBehaviour:
  m_ObjectHideFlags: 0
  m_PrefabParentObject: {fileID: 0}
  m_PrefabInternal: {fileID: 0}
  m_GameObject: {fileID: 0}
  m_Enabled: 1
  m_EditorHideFlags: 0
  m_Script: {fileID: 11500000, guid: 5cd55caa3a6046c45bf4ef628a274990, type: 3}
  m_Name: -125882
  m_EditorClassIdentifier: 
  OptionTextAsset: {fileID: 11400000, guid: 08addd0f85c140b4b959c2bd8718e40c, type: 2}
  NextNode: {fileID: 11400000, guid: 8409c27ea5a43c648936d2dfc644acff, type: 2}
--- !u!114 &114386533473782668
MonoBehaviour:
  m_ObjectHideFlags: 0
  m_PrefabParentObject: {fileID: 0}
  m_PrefabInternal: {fileID: 0}
  m_GameObject: {fileID: 0}
  m_Enabled: 1
  m_EditorHideFlags: 0
  m_Script: {fileID: 11500000, guid: 5cd55caa3a6046c45bf4ef628a274990, type: 3}
  m_Name: -6648
  m_EditorClassIdentifier: 
  OptionTextAsset: {fileID: 11400000, guid: 4925cf3f346103f499e0bdb7f3b85578, type: 2}
  NextNode: {fileID: 11400000, guid: 4a1d4ae355a64c14d97a29a9f1e6c054, type: 2}
