%YAML 1.1
%TAG !u! tag:unity3d.com,2011:
--- !u!114 &11400000
MonoBehaviour:
  m_ObjectHideFlags: 0
  m_PrefabParentObject: {fileID: 0}
  m_PrefabInternal: {fileID: 0}
  m_GameObject: {fileID: 0}
  m_Enabled: 1
  m_EditorHideFlags: 0
  m_Script: {fileID: 11500000, guid: 25324db15d86dee449e3a6a1cb393b33, type: 3}
  m_Name: TR_1302_NeustrasseStart
  m_EditorClassIdentifier: 
  Handle: TR_1302_NeustrasseStart
  __EdTranslations:
  - locale: de
    translation: "Nun ist es vollbracht! Alles brennt und ich habe endlich Platz f\xFCr
      meine Pal\xE4ste!"
