%YAML 1.1
%TAG !u! tag:unity3d.com,2011:
--- !u!114 &11400000
MonoBehaviour:
  m_ObjectHideFlags: 0
  m_PrefabParentObject: {fileID: 0}
  m_PrefabInternal: {fileID: 0}
  m_GameObject: {fileID: 0}
  m_Enabled: 1
  m_EditorHideFlags: 0
  m_Script: {fileID: 11500000, guid: 0beaf17d02719a74d9e347298b3d989a, type: 3}
  m_Name: Esch_0407-0
  m_EditorClassIdentifier: 
  ReplaceRouteState:
    p_DialogTextAsset:
      value: {fileID: 0}
    p_PersonName:
      value: Spaghettischwestern
    p_DialogBackground:
      value: {fileID: 2800000, guid: acb8889a3c5b5514da0c57ddf7e7f989, type: 3}
    p_DialogPartner:
      value: {fileID: 2800000, guid: a339bba6dcb52e6498b63b728a979a6a, type: 3}
  LocalizedPersonName: {fileID: 11400000, guid: 8caf00588b5d42545a1990a34fe11dab,
    type: 2}
  NextNode: {fileID: 11400000, guid: de10aed50e5bcd34d9cb112ffe2c7c52, type: 2}
