%YAML 1.1
%TAG !u! tag:unity3d.com,2011:
--- !u!114 &11400000
MonoBehaviour:
  m_ObjectHideFlags: 0
  m_PrefabParentObject: {fileID: 0}
  m_PrefabInternal: {fileID: 0}
  m_GameObject: {fileID: 0}
  m_Enabled: 1
  m_EditorHideFlags: 0
  m_Script: {fileID: 11500000, guid: fdc4dbdb9844c194d8efc78a9d35f77e, type: 3}
  m_Name: Esch_0400.0
  m_EditorClassIdentifier: 
  DialogTextAsset: {fileID: 11400000, guid: faf565e60c21d8e4e9e7698f337bbb54, type: 2}
  Options:
  - {fileID: 114768864387661758}
  - {fileID: 114318366756115886}
--- !u!114 &114318366756115886
MonoBehaviour:
  m_ObjectHideFlags: 0
  m_PrefabParentObject: {fileID: 0}
  m_PrefabInternal: {fileID: 0}
  m_GameObject: {fileID: 0}
  m_Enabled: 1
  m_EditorHideFlags: 0
  m_Script: {fileID: 11500000, guid: 5cd55caa3a6046c45bf4ef628a274990, type: 3}
  m_Name: -10290
  m_EditorClassIdentifier: 
  OptionTextAsset: {fileID: 11400000, guid: cb1286ea3b0c88443becf5fce2b25864, type: 2}
  NextNode: {fileID: 11400000, guid: 233eddad5af95a0469127b50c6e8d92b, type: 2}
--- !u!114 &114768864387661758
MonoBehaviour:
  m_ObjectHideFlags: 0
  m_PrefabParentObject: {fileID: 0}
  m_PrefabInternal: {fileID: 0}
  m_GameObject: {fileID: 0}
  m_Enabled: 1
  m_EditorHideFlags: 0
  m_Script: {fileID: 11500000, guid: 5cd55caa3a6046c45bf4ef628a274990, type: 3}
  m_Name: -10168
  m_EditorClassIdentifier: 
  OptionTextAsset: {fileID: 11400000, guid: d9eda8dc15dbb5a4ba2c719bf22821ba, type: 2}
  NextNode: {fileID: 11400000, guid: 91ee9290dc1e83b4da2b008e28d3cafc, type: 2}
