%YAML 1.1
%TAG !u! tag:unity3d.com,2011:
--- !u!114 &11400000
MonoBehaviour:
  m_ObjectHideFlags: 0
  m_PrefabParentObject: {fileID: 0}
  m_PrefabInternal: {fileID: 0}
  m_GameObject: {fileID: 0}
  m_Enabled: 1
  m_EditorHideFlags: 0
  m_Script: {fileID: 11500000, guid: a173c431168134046b1466ac36f66162, type: 3}
  m_Name: EschRoute
  m_EditorClassIdentifier: 
  m_Waypoints: {fileID: 11400000, guid: 1c7e3c04d97ebbd4091830b15618b045, type: 2}
  m_WaypointSelector: {fileID: 0}
  RouteName: {fileID: 11400000, guid: 80cb6872c5fe5a6419160510a309239b, type: 2}
  RouteLocation: {fileID: 11400000, guid: 933618167851dce469f1d1b0538746cd, type: 2}
  RouteDescription: {fileID: 11400000, guid: cacd19d0265da4c45abd1f16ba1ca0eb, type: 2}
  m_DefaultProgress:
    p_Points:
      value: 0
    Waypoints: []
    Items:
    - m_ID: RESOURCE
      Name: {fileID: 11400000, guid: 796bfa3503a1b984ebb109a9a119a6fe, type: 2}
      p_Count:
        value: 6
      Icon: {fileID: 21300000, guid: d25c58cfdcf8ab144932893d21531960, type: 3}
    ResourceName: {fileID: 11400000, guid: 796bfa3503a1b984ebb109a9a119a6fe, type: 2}
    ResourceImage: {fileID: 21300000, guid: d25c58cfdcf8ab144932893d21531960, type: 3}
    p_ResourceCapacity:
      value: 10
    p_ResourceAvailable:
      value: 6
    ResourceColor: {r: 0.13916522, g: 0.6304885, b: 0.72794116, a: 1}
    ResourceChangeCue: {fileID: 11400000, guid: d90117ec816c3f94f8c8b3d9081d1da4,
      type: 2}
    version: 1
