%YAML 1.1
%TAG !u! tag:unity3d.com,2011:
--- !u!114 &11400000
MonoBehaviour:
  m_ObjectHideFlags: 0
  m_PrefabParentObject: {fileID: 0}
  m_PrefabInternal: {fileID: 0}
  m_GameObject: {fileID: 0}
  m_Enabled: 1
  m_EditorHideFlags: 0
  m_Script: {fileID: 11500000, guid: 25324db15d86dee449e3a6a1cb393b33, type: 3}
  m_Name: TR_HELP2_CONTENT
  m_EditorClassIdentifier: 
  Handle: TR_HELP2_CONTENT
  __EdTranslations:
  - locale: de
    translation: "Zu den Schaupl\xE4tzen der Geschichte f\xFChrt der Kartenbildschirm.
      Die Meteranzeige deutet auf die Strecke hin, die Du bis noch zum n\xE4chsten
      Schauplatz zur\xFCcklegen musst. Je n\xE4her Du kommst, desto gr\xF6\xDFer wird
      das Bild des jeweiligen Schauplatzes. \r\nSollten einmal eine Baustelle oder
      etwas \xE4hnliches verhindern, dass Du den vorgesehenen Wegpunkt erreichst,
      kannst du ihn mithilfe des \u201EWegpunkt \xFCberspringen\u201C-Buttons direkt
      erreichen. Der ist aber nur f\xFCr den absoluten Notfall da. Wo bleibt denn
      sonst der Spielspa\xDF?"
  - locale: fr
    translation: "La carte indique les diff\xE9rents lieux dont parle l\u2019histoire.
      La distance jusqu\u2019\xE0 la prochaine \xE9tape est affich\xE9e en m\xE8tres.
      \xC0 mesure que tu approches du but, l\u2019image du lieu s\u2019agrandit. \r\nSi
      un chantier ou autre obstacle de ce type t\u2019emp\xEAchent de suivre l\u2019itin\xE9raire
      pr\xE9vu, tu peux directement atteindre l\u2019\xE9tape suivante gr\xE2ce \xE0
      la touche \xAB Sauter route \xBB. Mais cette fonction ne doit servir qu\u2019en
      cas de n\xE9cessit\xE9 absolue. Autrement, o\xF9 est le plaisir du jeu ?"
  - locale: lb
    translation: "Op d\xE9i historesch Plaze f\xE9iert den Ecran mat der Kaart. De
      Meter weist d'Streck un, d\xE9i nach bis bei d\xE9i n\xE4chst Plaz ze tr\xEBppelen
      ass. Wat s du m\xE9i no k\xEBnns, wat d'Bild vun der jeeweileger Plaz m\xE9i
      grouss g\xEBtt.\r\nSoll e Chantier oder eppes \xC4hnleches mol verh\xEBnneren,
      datt s du dee geziilte Punkt erreechs, da kanns du dee mat H\xEBllef vun der
      Tast \"Streck iwwersprangen\" direkt erreechen. Deen ass awer just fir den absoluten
      Noutfall do. Wou bleift da soss de Spaass beim Spillen?"
  - locale: en
    translation: "The screen map leads you to the scene of the stories. The indicator
      shows the distance left until you reach the next scene. The closer you get,
      the bigger the image of that scene becomes.\r\nIf a construction site or something
      similar should get in the way of your planned waypoint, you can reach it directly
      with the help of the \u201CSkip distance\u201D button. But it's only there in
      case of absolute emergency. Otherwise where's the fun?"
