%YAML 1.1
%TAG !u! tag:unity3d.com,2011:
--- !u!114 &11400000
MonoBehaviour:
  m_ObjectHideFlags: 0
  m_PrefabParentObject: {fileID: 0}
  m_PrefabInternal: {fileID: 0}
  m_GameObject: {fileID: 0}
  m_Enabled: 1
  m_EditorHideFlags: 0
  m_Script: {fileID: 11500000, guid: dc0b465373f96464fab6574722c4d3c1, type: 3}
  m_Name: IrminenfreihofWaypoints
  m_EditorClassIdentifier: 
  m_Waypoints:
  - Name: TR_Waypoint_00
    Location:
      latitude: 49.759091
      longitude: 6.632191
      provider: 
      accuracy: 0
      numSatellites: 0
    WaypointType: 0
    Radius: 10
    Game:
      GameScene: 
    Dialog:
      RootNode: {fileID: 11400000, guid: 70e2954960e2887418aba9b1048d1310, type: 2}
  - Name: TR_Waypoint_01
    Location:
      latitude: 49.759286
      longitude: 6.632903
      provider: 
      accuracy: 0
      numSatellites: 0
    WaypointType: 1
    Radius: 10
    Game:
      GameScene: Dbg_GameScene
    Dialog:
      RootNode: {fileID: 0}
  - Name: TR_Waypoint_02
    Location:
      latitude: 49.759383
      longitude: 6.633609
      provider: 
      accuracy: 0
      numSatellites: 0
    WaypointType: 0
    Radius: 10
    Game:
      GameScene: 
    Dialog:
      RootNode: {fileID: 11400000, guid: f8ecc40454a5cd94dbc3934c2ceb9b7c, type: 2}
  - Name: TR_Waypoint_03
    Location:
      latitude: 49.758872
      longitude: 6.633374
      provider: 
      accuracy: 0
      numSatellites: 0
    WaypointType: 1
    Radius: 10
    Game:
      GameScene: Dbg_GameScene
    Dialog:
      RootNode: {fileID: 11400000, guid: f8ecc40454a5cd94dbc3934c2ceb9b7c, type: 2}
