%YAML 1.1
%TAG !u! tag:unity3d.com,2011:
--- !u!114 &11400000
MonoBehaviour:
  m_ObjectHideFlags: 0
  m_PrefabParentObject: {fileID: 0}
  m_PrefabInternal: {fileID: 0}
  m_GameObject: {fileID: 0}
  m_Enabled: 1
  m_EditorHideFlags: 0
  m_Script: {fileID: 11500000, guid: fdc4dbdb9844c194d8efc78a9d35f77e, type: 3}
  m_Name: Trier_1401.3
  m_EditorClassIdentifier: 
  DialogTextAsset: {fileID: 11400000, guid: c44df68d70409d941a2f7ed0cdbdeb55, type: 2}
  Options:
  - {fileID: 114090729031922022}
--- !u!114 &114090729031922022
MonoBehaviour:
  m_ObjectHideFlags: 0
  m_PrefabParentObject: {fileID: 0}
  m_PrefabInternal: {fileID: 0}
  m_GameObject: {fileID: 0}
  m_Enabled: 1
  m_EditorHideFlags: 0
  m_Script: {fileID: 11500000, guid: 5cd55caa3a6046c45bf4ef628a274990, type: 3}
  m_Name: -125882
  m_EditorClassIdentifier: 
  OptionTextAsset: {fileID: 11400000, guid: c7491357309e4a0428fadd15def6befa, type: 2}
  NextNode: {fileID: 11400000, guid: 67bd8fdb473b43f44b667874e390205a, type: 2}
--- !u!114 &114211661940565042
MonoBehaviour:
  m_ObjectHideFlags: 0
  m_PrefabParentObject: {fileID: 0}
  m_PrefabInternal: {fileID: 0}
  m_GameObject: {fileID: 0}
  m_Enabled: 1
  m_EditorHideFlags: 0
  m_Script: {fileID: 11500000, guid: 5cd55caa3a6046c45bf4ef628a274990, type: 3}
  m_Name: -13892
  m_EditorClassIdentifier: 
  OptionTextAsset: {fileID: 0}
  NextNode: {fileID: 0}
--- !u!114 &114634763583037388
MonoBehaviour:
  m_ObjectHideFlags: 0
  m_PrefabParentObject: {fileID: 0}
  m_PrefabInternal: {fileID: 0}
  m_GameObject: {fileID: 0}
  m_Enabled: 1
  m_EditorHideFlags: 0
  m_Script: {fileID: 11500000, guid: 5cd55caa3a6046c45bf4ef628a274990, type: 3}
  m_Name: -16104
  m_EditorClassIdentifier: 
  OptionTextAsset: {fileID: 0}
  NextNode: {fileID: 0}
