%YAML 1.1
%TAG !u! tag:unity3d.com,2011:
--- !u!114 &11400000
MonoBehaviour:
  m_ObjectHideFlags: 0
  m_PrefabParentObject: {fileID: 0}
  m_PrefabInternal: {fileID: 0}
  m_GameObject: {fileID: 0}
  m_Enabled: 1
  m_EditorHideFlags: 0
  m_Script: {fileID: 11500000, guid: 91b92e38c9c8f624c9cfb974b7a90cdc, type: 3}
  m_Name: Trier_1409.1-Eimer
  m_EditorClassIdentifier: 
  ResourcesAdded: 0
  ResourceCapacityAdded: 1
  NextNode: {fileID: 11400000, guid: 04219b418cbdf0245934a82c08594dec, type: 2}
