%YAML 1.1
%TAG !u! tag:unity3d.com,2011:
--- !u!114 &11400000
MonoBehaviour:
  m_ObjectHideFlags: 0
  m_PrefabParentObject: {fileID: 0}
  m_PrefabInternal: {fileID: 0}
  m_GameObject: {fileID: 0}
  m_Enabled: 1
  m_EditorHideFlags: 0
  m_Script: {fileID: 11500000, guid: fdc4dbdb9844c194d8efc78a9d35f77e, type: 3}
  m_Name: 052_Georgsbrunnen
  m_EditorClassIdentifier: 
  DialogTextAsset: {fileID: 11400000, guid: 93d15877fe95a9c40984d2b807126117, type: 2}
  DialogTextTag: "*Du f\xFCllst in einem Minispiel Deine bisherigen Eimer auf."
  Options: []
