%YAML 1.1
%TAG !u! tag:unity3d.com,2011:
--- !u!114 &11400000
MonoBehaviour:
  m_ObjectHideFlags: 0
  m_PrefabParentObject: {fileID: 0}
  m_PrefabInternal: {fileID: 0}
  m_GameObject: {fileID: 0}
  m_Enabled: 1
  m_EditorHideFlags: 0
  m_Script: {fileID: 11500000, guid: dc0b465373f96464fab6574722c4d3c1, type: 3}
  m_Name: WegpunkteTrierFinal
  m_EditorClassIdentifier: 
  m_Waypoints:
  - Name: Handwerkerbrunnen1
    Location:
      latitude: 49.753401
      longitude: 6.638827
      provider: 
      accuracy: 0
      numSatellites: 0
    WaypointType: 0
    Radius: 10
    RoutingBackground: {fileID: 21300000, guid: 05581496dc99e25499385a02d1e07358,
      type: 3}
    RoutingInfo: {fileID: 0}
    Game:
      GameScene: 
    Dialog:
      RootNode: {fileID: 11400000, guid: 3fc9cc67f624c3444bff11007dc3abf0, type: 2}
  - Name: Viehmarkt
    Location:
      latitude: 49.752993
      longitude: 6.637728
      provider: 
      accuracy: 0
      numSatellites: 0
    WaypointType: 0
    Radius: 10
    RoutingBackground: {fileID: 21300000, guid: d9d4f4129e2d0914cb1e0532bdb3a21c,
      type: 3}
    RoutingInfo: {fileID: 0}
    Game:
      GameScene: 
    Dialog:
      RootNode: {fileID: 11400000, guid: 1f15b1a385eddca4f969e24b3d4880b5, type: 2}
  - Name: Heuschreckbrunnen_p1
    Location:
      latitude: 49.754075
      longitude: 6.636612
      provider: 
      accuracy: 0
      numSatellites: 0
    WaypointType: 0
    Radius: 10
    RoutingBackground: {fileID: 21300000, guid: da01f7dfc3eac634c89ce60f50efff37,
      type: 3}
    RoutingInfo: {fileID: 0}
    Game:
      GameScene: 
    Dialog:
      RootNode: {fileID: 11400000, guid: fd60e92ba6f89084f9fbeecf7dc162c3, type: 2}
  - Name: Heuschreckbrunnen_GameEimer
    Location:
      latitude: 49.754075
      longitude: 6.636612
      provider: 
      accuracy: 0
      numSatellites: 0
    WaypointType: 1
    Radius: 10
    RoutingBackground: {fileID: 21300000, guid: da01f7dfc3eac634c89ce60f50efff37,
      type: 3}
    RoutingInfo: {fileID: 0}
    Game:
      GameScene: EimerfuellSpiel
    Dialog:
      RootNode: {fileID: 0}
  - Name: Heuschreckbrunnen_p2
    Location:
      latitude: 49.754075
      longitude: 6.636612
      provider: 
      accuracy: 0
      numSatellites: 0
    WaypointType: 0
    Radius: 10
    RoutingBackground: {fileID: 21300000, guid: da01f7dfc3eac634c89ce60f50efff37,
      type: 3}
    RoutingInfo: {fileID: 0}
    Game:
      GameScene: 
    Dialog:
      RootNode: {fileID: 11400000, guid: b12c07f6dbde0ba408a930c72c78aeb6, type: 2}
  - Name: Hochbunker_p1
    Location:
      latitude: 49.751755
      longitude: 6.63349
      provider: 
      accuracy: 0
      numSatellites: 0
    WaypointType: 0
    Radius: 10
    RoutingBackground: {fileID: 21300000, guid: 08bfab2c4a6de6e45b71cac48a05304f,
      type: 3}
    RoutingInfo: {fileID: 0}
    Game:
      GameScene: 
    Dialog:
      RootNode: {fileID: 11400000, guid: b6abd0cfec234004cac4c854005dcfeb, type: 2}
  - Name: Hochbunker_GameFeuer
    Location:
      latitude: 49.751755
      longitude: 6.63349
      provider: 
      accuracy: 0
      numSatellites: 0
    WaypointType: 1
    Radius: 10
    RoutingBackground: {fileID: 21300000, guid: 08bfab2c4a6de6e45b71cac48a05304f,
      type: 3}
    RoutingInfo: {fileID: 0}
    Game:
      GameScene: FeuerloeschSpiel
    Dialog:
      RootNode: {fileID: 0}
  - Name: Hochbunker_p2
    Location:
      latitude: 49.751755
      longitude: 6.63349
      provider: 
      accuracy: 0
      numSatellites: 0
    WaypointType: 0
    Radius: 10
    RoutingBackground: {fileID: 21300000, guid: 08bfab2c4a6de6e45b71cac48a05304f,
      type: 3}
    RoutingInfo: {fileID: 0}
    Game:
      GameScene: 
    Dialog:
      RootNode: {fileID: 11400000, guid: d487834c9a66c7c40a70200c6204e9ec, type: 2}
  - Name: Karl-Marx-Haus
    Location:
      latitude: 49.753878
      longitude: 6.635835
      provider: 
      accuracy: 0
      numSatellites: 0
    WaypointType: 0
    Radius: 10
    RoutingBackground: {fileID: 21300000, guid: a1742f0b3b53bd4439ddf3a91d71822f,
      type: 3}
    RoutingInfo: {fileID: 0}
    Game:
      GameScene: 
    Dialog:
      RootNode: {fileID: 11400000, guid: 79588324b04dc3e4b9cc152e87e11232, type: 2}
  - Name: Georgsbrunnen_p1
    Location:
      latitude: 49.755183
      longitude: 6.638433
      provider: 
      accuracy: 0
      numSatellites: 0
    WaypointType: 0
    Radius: 10
    RoutingBackground: {fileID: 21300000, guid: e1f3c704bd601ce4f8232453348d0fdd,
      type: 3}
    RoutingInfo: {fileID: 0}
    Game:
      GameScene: 
    Dialog:
      RootNode: {fileID: 11400000, guid: e631418438da383449cd40f188491a9b, type: 2}
  - Name: Georgsbrunnen_GameEimer
    Location:
      latitude: 49.755183
      longitude: 6.638433
      provider: 
      accuracy: 0
      numSatellites: 0
    WaypointType: 1
    Radius: 10
    RoutingBackground: {fileID: 21300000, guid: e1f3c704bd601ce4f8232453348d0fdd,
      type: 3}
    RoutingInfo: {fileID: 0}
    Game:
      GameScene: EimerfuellSpiel
    Dialog:
      RootNode: {fileID: 0}
  - Name: Georgsbrunnen_p2
    Location:
      latitude: 49.755183
      longitude: 6.638433
      provider: 
      accuracy: 0
      numSatellites: 0
    WaypointType: 0
    Radius: 10
    RoutingBackground: {fileID: 21300000, guid: e1f3c704bd601ce4f8232453348d0fdd,
      type: 3}
    RoutingInfo: {fileID: 0}
    Game:
      GameScene: 
    Dialog:
      RootNode: {fileID: 11400000, guid: 8da5ecbfecef4b8489cbf0311a6cb1ca, type: 2}
  - Name: AltesRathaus_p1
    Location:
      latitude: 49.755033
      longitude: 6.639127
      provider: 
      accuracy: 0
      numSatellites: 0
    WaypointType: 0
    Radius: 10
    RoutingBackground: {fileID: 21300000, guid: 116f06da8788d2945bb27acafd2ff732,
      type: 3}
    RoutingInfo: {fileID: 0}
    Game:
      GameScene: 
    Dialog:
      RootNode: {fileID: 11400000, guid: 7790e9b1b5e8b9d479c53c14b9da10c8, type: 2}
  - Name: AltesRathaus_GameFeuer
    Location:
      latitude: 49.755033
      longitude: 6.639127
      provider: 
      accuracy: 0
      numSatellites: 0
    WaypointType: 1
    Radius: 100
    RoutingBackground: {fileID: 21300000, guid: 116f06da8788d2945bb27acafd2ff732,
      type: 3}
    RoutingInfo: {fileID: 0}
    Game:
      GameScene: FeuerloeschSpiel
    Dialog:
      RootNode: {fileID: 0}
  - Name: AltesRathaus_p2
    Location:
      latitude: 49.755033
      longitude: 6.639127
      provider: 
      accuracy: 0
      numSatellites: 0
    WaypointType: 0
    Radius: 100
    RoutingBackground: {fileID: 21300000, guid: 116f06da8788d2945bb27acafd2ff732,
      type: 3}
    RoutingInfo: {fileID: 0}
    Game:
      GameScene: 
    Dialog:
      RootNode: {fileID: 11400000, guid: ce01db30aad509f4cbc37a0abdb249e5, type: 2}
  - Name: Glockenspiel_p1
    Location:
      latitude: 49.756788
      longitude: 6.640648
      provider: 
      accuracy: 0
      numSatellites: 0
    WaypointType: 0
    Radius: 10
    RoutingBackground: {fileID: 21300000, guid: 9890414c7c921c643967c5b864e0865c,
      type: 3}
    RoutingInfo: {fileID: 0}
    Game:
      GameScene: 
    Dialog:
      RootNode: {fileID: 11400000, guid: a7bba677ad9f3dd43b11860926af2d59, type: 2}
  - Name: Glockenspiel_GameGlocken
    Location:
      latitude: 49.756788
      longitude: 6.640648
      provider: 
      accuracy: 0
      numSatellites: 0
    WaypointType: 1
    Radius: 100
    RoutingBackground: {fileID: 21300000, guid: 9890414c7c921c643967c5b864e0865c,
      type: 3}
    RoutingInfo: {fileID: 0}
    Game:
      GameScene: Glockenspiel
    Dialog:
      RootNode: {fileID: 0}
  - Name: Glockenspiel_p2
    Location:
      latitude: 49.756788
      longitude: 6.640648
      provider: 
      accuracy: 0
      numSatellites: 0
    WaypointType: 0
    Radius: 100
    RoutingBackground: {fileID: 21300000, guid: 9890414c7c921c643967c5b864e0865c,
      type: 3}
    RoutingInfo: {fileID: 0}
    Game:
      GameScene: 
    Dialog:
      RootNode: {fileID: 11400000, guid: ef5337356a6b1724199a3d1a6e438128, type: 2}
  - Name: Petrusbrunnen_p1
    Location:
      latitude: 49.756592
      longitude: 6.641232
      provider: 
      accuracy: 0
      numSatellites: 0
    WaypointType: 0
    Radius: 10
    RoutingBackground: {fileID: 21300000, guid: 9b145f4fb7973f145a1231332067d031,
      type: 3}
    RoutingInfo: {fileID: 0}
    Game:
      GameScene: 
    Dialog:
      RootNode: {fileID: 11400000, guid: 9896efb219507d64999d790721a8609e, type: 2}
  - Name: Petrusbrunnen_GameEimer
    Location:
      latitude: 49.756592
      longitude: 6.641232
      provider: 
      accuracy: 0
      numSatellites: 0
    WaypointType: 1
    Radius: 100
    RoutingBackground: {fileID: 21300000, guid: 9b145f4fb7973f145a1231332067d031,
      type: 3}
    RoutingInfo: {fileID: 0}
    Game:
      GameScene: EimerfuellSpiel
    Dialog:
      RootNode: {fileID: 0}
  - Name: Petrusbrunnen_p2
    Location:
      latitude: 49.756592
      longitude: 6.641232
      provider: 
      accuracy: 0
      numSatellites: 0
    WaypointType: 0
    Radius: 100
    RoutingBackground: {fileID: 21300000, guid: 9b145f4fb7973f145a1231332067d031,
      type: 3}
    RoutingInfo: {fileID: 0}
    Game:
      GameScene: 
    Dialog:
      RootNode: {fileID: 11400000, guid: 942010fc0f33972458625c066db10fcf, type: 2}
  - Name: Dom_p1
    Location:
      latitude: 49.756411
      longitude: 6.642627
      provider: 
      accuracy: 0
      numSatellites: 0
    WaypointType: 0
    Radius: 10
    RoutingBackground: {fileID: 21300000, guid: e2572eedc70637e42b1754bebca73a60,
      type: 3}
    RoutingInfo: {fileID: 0}
    Game:
      GameScene: 
    Dialog:
      RootNode: {fileID: 11400000, guid: b313ba07814d2204da7fb1aaece65219, type: 2}
  - Name: Dom_GameFeuer
    Location:
      latitude: 49.756411
      longitude: 6.642627
      provider: 
      accuracy: 0
      numSatellites: 0
    WaypointType: 1
    Radius: 100
    RoutingBackground: {fileID: 21300000, guid: e2572eedc70637e42b1754bebca73a60,
      type: 3}
    RoutingInfo: {fileID: 0}
    Game:
      GameScene: FeuerloeschSpiel
    Dialog:
      RootNode: {fileID: 0}
  - Name: Dom_p2
    Location:
      latitude: 49.756411
      longitude: 6.642627
      provider: 
      accuracy: 0
      numSatellites: 0
    WaypointType: 0
    Radius: 100
    RoutingBackground: {fileID: 21300000, guid: e2572eedc70637e42b1754bebca73a60,
      type: 3}
    RoutingInfo: {fileID: 0}
    Game:
      GameScene: 
    Dialog:
      RootNode: {fileID: 11400000, guid: f0afa96137a2f70418634979d8d701d2, type: 2}
  - Name: Konstantinbasilika1
    Location:
      latitude: 49.753802
      longitude: 6.642817
      provider: 
      accuracy: 0
      numSatellites: 0
    WaypointType: 0
    Radius: 10
    RoutingBackground: {fileID: 21300000, guid: 9c972337317918840b937d99ebed6a82,
      type: 3}
    RoutingInfo: {fileID: 0}
    Game:
      GameScene: 
    Dialog:
      RootNode: {fileID: 11400000, guid: 51ffce8cfba5ef845a0bacfcc4fb62e5, type: 2}
  - Name: Palastgarten_p1
    Location:
      latitude: 49.752792
      longitude: 6.644139
      provider: 
      accuracy: 0
      numSatellites: 0
    WaypointType: 0
    Radius: 10
    RoutingBackground: {fileID: 21300000, guid: da01f7dfc3eac634c89ce60f50efff37,
      type: 3}
    RoutingInfo: {fileID: 0}
    Game:
      GameScene: 
    Dialog:
      RootNode: {fileID: 11400000, guid: e76997abd7dde3241a6fda5b70aabf39, type: 2}
  - Name: Palastgarten_GameEimer
    Location:
      latitude: 49.752792
      longitude: 6.644139
      provider: 
      accuracy: 0
      numSatellites: 0
    WaypointType: 1
    Radius: 100
    RoutingBackground: {fileID: 21300000, guid: da01f7dfc3eac634c89ce60f50efff37,
      type: 3}
    RoutingInfo: {fileID: 0}
    Game:
      GameScene: EimerfuellSpiel
    Dialog:
      RootNode: {fileID: 0}
  - Name: Palastgarten_p2
    Location:
      latitude: 49.752792
      longitude: 6.644139
      provider: 
      accuracy: 0
      numSatellites: 0
    WaypointType: 0
    Radius: 100
    RoutingBackground: {fileID: 21300000, guid: da01f7dfc3eac634c89ce60f50efff37,
      type: 3}
    RoutingInfo: {fileID: 0}
    Game:
      GameScene: 
    Dialog:
      RootNode: {fileID: 11400000, guid: 63517bfa5e4f659459de9080c7bc53c8, type: 2}
  - Name: Konstantinbasilika2_p1
    Location:
      latitude: 49.753802
      longitude: 6.642817
      provider: 
      accuracy: 0
      numSatellites: 0
    WaypointType: 0
    Radius: 10
    RoutingBackground: {fileID: 21300000, guid: 9c972337317918840b937d99ebed6a82,
      type: 3}
    RoutingInfo: {fileID: 0}
    Game:
      GameScene: 
    Dialog:
      RootNode: {fileID: 11400000, guid: 3611356b8eff9f842ba6e86aee636f43, type: 2}
  - Name: Konstantinbasilika2_GameFeuer
    Location:
      latitude: 49.753802
      longitude: 6.642817
      provider: 
      accuracy: 0
      numSatellites: 0
    WaypointType: 1
    Radius: 100
    RoutingBackground: {fileID: 21300000, guid: 9c972337317918840b937d99ebed6a82,
      type: 3}
    RoutingInfo: {fileID: 0}
    Game:
      GameScene: FeuerloeschSpiel
    Dialog:
      RootNode: {fileID: 0}
  - Name: Konstantinbasilika2_p2
    Location:
      latitude: 49.753802
      longitude: 6.642817
      provider: 
      accuracy: 0
      numSatellites: 0
    WaypointType: 0
    Radius: 100
    RoutingBackground: {fileID: 21300000, guid: 9c972337317918840b937d99ebed6a82,
      type: 3}
    RoutingInfo: {fileID: 0}
    Game:
      GameScene: 
    Dialog:
      RootNode: {fileID: 11400000, guid: 28dbfa6da50eff340a3f073f5c785907, type: 2}
  - Name: Handwerkerbrunnen2_p1
    Location:
      latitude: 49.753401
      longitude: 6.638827
      provider: 
      accuracy: 0
      numSatellites: 0
    WaypointType: 0
    Radius: 10
    RoutingBackground: {fileID: 21300000, guid: 05581496dc99e25499385a02d1e07358,
      type: 3}
    RoutingInfo: {fileID: 0}
    Game:
      GameScene: 
    Dialog:
      RootNode: {fileID: 11400000, guid: 1ead7ba96a4040046a9161ed1613102c, type: 2}
  - Name: Handwerkerbrunnen2_GameEimer
    Location:
      latitude: 49.753401
      longitude: 6.638827
      provider: 
      accuracy: 0
      numSatellites: 0
    WaypointType: 1
    Radius: 100
    RoutingBackground: {fileID: 21300000, guid: 05581496dc99e25499385a02d1e07358,
      type: 3}
    RoutingInfo: {fileID: 0}
    Game:
      GameScene: EimerfuellSpiel
    Dialog:
      RootNode: {fileID: 0}
  - Name: Handwerkerbrunnen2_p2
    Location:
      latitude: 49.753401
      longitude: 6.638827
      provider: 
      accuracy: 0
      numSatellites: 0
    WaypointType: 0
    Radius: 100
    RoutingBackground: {fileID: 21300000, guid: 05581496dc99e25499385a02d1e07358,
      type: 3}
    RoutingInfo: {fileID: 0}
    Game:
      GameScene: 
    Dialog:
      RootNode: {fileID: 11400000, guid: 957ca1800b21ee340a276d3b12844b0c, type: 2}
  - Name: Neustrasse_p1
    Location:
      latitude: 49.753265
      longitude: 6.639296
      provider: 
      accuracy: 0
      numSatellites: 0
    WaypointType: 0
    Radius: 10
    RoutingBackground: {fileID: 21300000, guid: 9c972337317918840b937d99ebed6a82,
      type: 3}
    RoutingInfo: {fileID: 0}
    Game:
      GameScene: 
    Dialog:
      RootNode: {fileID: 11400000, guid: c07cf3e92d165d049a7bbe0404dc5c9f, type: 2}
  - Name: Neustrasse_GameFeuer
    Location:
      latitude: 49.753265
      longitude: 6.639296
      provider: 
      accuracy: 0
      numSatellites: 0
    WaypointType: 1
    Radius: 100
    RoutingBackground: {fileID: 21300000, guid: 9c972337317918840b937d99ebed6a82,
      type: 3}
    RoutingInfo: {fileID: 0}
    Game:
      GameScene: FeuerloeschSpielFinale
    Dialog:
      RootNode: {fileID: 0}
  - Name: Neustrasse_p2
    Location:
      latitude: 49.753265
      longitude: 6.639296
      provider: 
      accuracy: 0
      numSatellites: 0
    WaypointType: 0
    Radius: 100
    RoutingBackground: {fileID: 21300000, guid: 9c972337317918840b937d99ebed6a82,
      type: 3}
    RoutingInfo: {fileID: 0}
    Game:
      GameScene: 
    Dialog:
      RootNode: {fileID: 11400000, guid: 44bf37eb6b28c1e4692ded2f1c16bbb7, type: 2}
