%YAML 1.1
%TAG !u! tag:unity3d.com,2011:
--- !u!114 &11400000
MonoBehaviour:
  m_ObjectHideFlags: 0
  m_PrefabParentObject: {fileID: 0}
  m_PrefabInternal: {fileID: 0}
  m_GameObject: {fileID: 0}
  m_Enabled: 1
  m_EditorHideFlags: 0
  m_Script: {fileID: 11500000, guid: 0beaf17d02719a74d9e347298b3d989a, type: 3}
  m_Name: Esch_0200-0
  m_EditorClassIdentifier: 
  ReplaceRouteState:
    p_DialogTextAsset:
      value: {fileID: 0}
    p_PersonName:
      value: Schreiter
    p_DialogBackground:
      value: {fileID: 2800000, guid: 03775888994d8614e9b6bf5912b591fb, type: 3}
    p_DialogPartner:
      value: {fileID: 2800000, guid: 297f0d4ca51d1ef488f8887ebb2a9b09, type: 3}
  LocalizedPersonName: {fileID: 11400000, guid: 395b46b853d871b4da28f2e47e6080bb,
    type: 2}
  NextNode: {fileID: 11400000, guid: e2f86ffc591dc224fbb6a2cfe83d1ac6, type: 2}
