%YAML 1.1
%TAG !u! tag:unity3d.com,2011:
--- !u!114 &11400000
MonoBehaviour:
  m_ObjectHideFlags: 0
  m_PrefabParentObject: {fileID: 0}
  m_PrefabInternal: {fileID: 0}
  m_GameObject: {fileID: 0}
  m_Enabled: 1
  m_EditorHideFlags: 0
  m_Script: {fileID: 11500000, guid: fdc4dbdb9844c194d8efc78a9d35f77e, type: 3}
  m_Name: Esch_0200.0
  m_EditorClassIdentifier: 
  DialogTextAsset: {fileID: 11400000, guid: 1927505756f37d741ba647a75d320d88, type: 2}
  Options:
  - {fileID: 114547115785058746}
  - {fileID: 114577637508909824}
--- !u!114 &114547115785058746
MonoBehaviour:
  m_ObjectHideFlags: 0
  m_PrefabParentObject: {fileID: 0}
  m_PrefabInternal: {fileID: 0}
  m_GameObject: {fileID: 0}
  m_Enabled: 1
  m_EditorHideFlags: 0
  m_Script: {fileID: 11500000, guid: 5cd55caa3a6046c45bf4ef628a274990, type: 3}
  m_Name: -14166
  m_EditorClassIdentifier: 
  OptionTextAsset: {fileID: 11400000, guid: 1db8f4483eba6244d9e2783d60cf96e5, type: 2}
  NextNode: {fileID: 11400000, guid: 446abb77766537b449c92f36a80e470b, type: 2}
--- !u!114 &114577637508909824
MonoBehaviour:
  m_ObjectHideFlags: 0
  m_PrefabParentObject: {fileID: 0}
  m_PrefabInternal: {fileID: 0}
  m_GameObject: {fileID: 0}
  m_Enabled: 1
  m_EditorHideFlags: 0
  m_Script: {fileID: 11500000, guid: 5cd55caa3a6046c45bf4ef628a274990, type: 3}
  m_Name: -14346
  m_EditorClassIdentifier: 
  OptionTextAsset: {fileID: 11400000, guid: c988f138454b99c44aa744fc8f7c248e, type: 2}
  NextNode: {fileID: 11400000, guid: cf205a07a069b034daab6d3418b744ce, type: 2}
