%YAML 1.1
%TAG !u! tag:unity3d.com,2011:
--- !u!114 &11400000
MonoBehaviour:
  m_ObjectHideFlags: 0
  m_PrefabParentObject: {fileID: 0}
  m_PrefabInternal: {fileID: 0}
  m_GameObject: {fileID: 0}
  m_Enabled: 1
  m_EditorHideFlags: 0
  m_Script: {fileID: 11500000, guid: 82437f0ebef2ca44581dc614f2ad771f, type: 3}
  m_Name: Esch_0202.1
  m_EditorClassIdentifier: 
  DialogTextAsset: {fileID: 11400000, guid: b1c7e01f90b3e0648a2f6867a5c178b1, type: 2}
  NextNode: {fileID: 11400000, guid: 668f2d8910d41e24684afaf81f62f711, type: 2}
