%YAML 1.1
%TAG !u! tag:unity3d.com,2011:
--- !u!114 &11400000
MonoBehaviour:
  m_ObjectHideFlags: 0
  m_PrefabParentObject: {fileID: 0}
  m_PrefabInternal: {fileID: 0}
  m_GameObject: {fileID: 0}
  m_Enabled: 1
  m_EditorHideFlags: 0
  m_Script: {fileID: 11500000, guid: 3c767a1d2bd2d144bb391f9201dcd1d3, type: 3}
  m_Name: A_Dialog_Weiter_Cue
  m_EditorClassIdentifier: 
  WeightedClips:
  - Clip: {fileID: 8300000, guid: 5bbec0720fd55a446b32fd1679938ed8, type: 3}
    Weight: 1
  Volume:
    minValue: 0.580786
    maxValue: 0.66812223
  Pitch:
    minValue: 0.95633185
    maxValue: 1.0611354
