%YAML 1.1
%TAG !u! tag:unity3d.com,2011:
--- !u!114 &11400000
MonoBehaviour:
  m_ObjectHideFlags: 0
  m_PrefabParentObject: {fileID: 0}
  m_PrefabInternal: {fileID: 0}
  m_GameObject: {fileID: 0}
  m_Enabled: 1
  m_EditorHideFlags: 0
  m_Script: {fileID: 11500000, guid: 82437f0ebef2ca44581dc614f2ad771f, type: 3}
  m_Name: 400_HochbunkerStart
  m_EditorClassIdentifier: 
  DialogTextAsset: {fileID: 11400000, guid: 3d348595465f0d4478ced009d4c6d1f2, type: 2}
  NextNode: {fileID: 11400000, guid: e51c4044e267d504fb4cbfceb7431d5f, type: 2}
