%YAML 1.1
%TAG !u! tag:unity3d.com,2011:
--- !u!114 &11400000
MonoBehaviour:
  m_ObjectHideFlags: 0
  m_PrefabParentObject: {fileID: 0}
  m_PrefabInternal: {fileID: 0}
  m_GameObject: {fileID: 0}
  m_Enabled: 1
  m_EditorHideFlags: 0
  m_Script: {fileID: 11500000, guid: 0beaf17d02719a74d9e347298b3d989a, type: 3}
  m_Name: 1002-0_DomfreihofSpiel
  m_EditorClassIdentifier: 
  ReplaceRouteState:
    p_DialogTextAsset:
      value: {fileID: 0}
    p_PersonName:
      value: Minispiel
    p_DialogBackground:
      value: {fileID: 2800000, guid: e2572eedc70637e42b1754bebca73a60, type: 3}
    p_DialogPartner:
      value: {fileID: 2800000, guid: 8a953315f24eed14cb258801e7e29faf, type: 3}
  NextNode: {fileID: 11400000, guid: a6cd0a45dc988084ca69aa0a2fa38297, type: 2}
