%YAML 1.1
%TAG !u! tag:unity3d.com,2011:
--- !u!114 &11400000
MonoBehaviour:
  m_ObjectHideFlags: 0
  m_PrefabParentObject: {fileID: 0}
  m_PrefabInternal: {fileID: 0}
  m_GameObject: {fileID: 0}
  m_Enabled: 1
  m_EditorHideFlags: 0
  m_Script: {fileID: 11500000, guid: fdc4dbdb9844c194d8efc78a9d35f77e, type: 3}
  m_Name: Trier_0804.0
  m_EditorClassIdentifier: 
  DialogTextAsset: {fileID: 11400000, guid: 7b0dbeaa0b2c35742b2dbf7f4821d9f2, type: 2}
  Options:
  - {fileID: 114090729031922022}
  - {fileID: 114117833438979520}
  - {fileID: 114448281593580722}
--- !u!114 &114090729031922022
MonoBehaviour:
  m_ObjectHideFlags: 0
  m_PrefabParentObject: {fileID: 0}
  m_PrefabInternal: {fileID: 0}
  m_GameObject: {fileID: 0}
  m_Enabled: 1
  m_EditorHideFlags: 0
  m_Script: {fileID: 11500000, guid: 5cd55caa3a6046c45bf4ef628a274990, type: 3}
  m_Name: -125882
  m_EditorClassIdentifier: 
  OptionTextAsset: {fileID: 11400000, guid: d9cc9fc8a7f33cb4faaf26ccc340d052, type: 2}
  NextNode: {fileID: 11400000, guid: 091f4b4ad43faca46aff9aab12cd860d, type: 2}
--- !u!114 &114117833438979520
MonoBehaviour:
  m_ObjectHideFlags: 0
  m_PrefabParentObject: {fileID: 0}
  m_PrefabInternal: {fileID: 0}
  m_GameObject: {fileID: 0}
  m_Enabled: 1
  m_EditorHideFlags: 0
  m_Script: {fileID: 11500000, guid: 5cd55caa3a6046c45bf4ef628a274990, type: 3}
  m_Name: -59082
  m_EditorClassIdentifier: 
  OptionTextAsset: {fileID: 11400000, guid: 7cfc4e501b74a954189cf681fe819754, type: 2}
  NextNode: {fileID: 11400000, guid: 091f4b4ad43faca46aff9aab12cd860d, type: 2}
--- !u!114 &114211661940565042
MonoBehaviour:
  m_ObjectHideFlags: 0
  m_PrefabParentObject: {fileID: 0}
  m_PrefabInternal: {fileID: 0}
  m_GameObject: {fileID: 0}
  m_Enabled: 1
  m_EditorHideFlags: 0
  m_Script: {fileID: 11500000, guid: 5cd55caa3a6046c45bf4ef628a274990, type: 3}
  m_Name: -13892
  m_EditorClassIdentifier: 
  OptionTextAsset: {fileID: 0}
  NextNode: {fileID: 0}
--- !u!114 &114254880491478198
MonoBehaviour:
  m_ObjectHideFlags: 0
  m_PrefabParentObject: {fileID: 0}
  m_PrefabInternal: {fileID: 0}
  m_GameObject: {fileID: 0}
  m_Enabled: 1
  m_EditorHideFlags: 0
  m_Script: {fileID: 11500000, guid: 5cd55caa3a6046c45bf4ef628a274990, type: 3}
  m_Name: -58604
  m_EditorClassIdentifier: 
  OptionTextAsset: {fileID: 0}
  NextNode: {fileID: 0}
--- !u!114 &114448281593580722
MonoBehaviour:
  m_ObjectHideFlags: 0
  m_PrefabParentObject: {fileID: 0}
  m_PrefabInternal: {fileID: 0}
  m_GameObject: {fileID: 0}
  m_Enabled: 1
  m_EditorHideFlags: 0
  m_Script: {fileID: 11500000, guid: 5cd55caa3a6046c45bf4ef628a274990, type: 3}
  m_Name: -60384
  m_EditorClassIdentifier: 
  OptionTextAsset: {fileID: 11400000, guid: 52bb22f2be7907744bd8110182bfcf1d, type: 2}
  NextNode: {fileID: 11400000, guid: 817868e125c39bb4090d09a4b5fa42f0, type: 2}
--- !u!114 &114546657596868152
MonoBehaviour:
  m_ObjectHideFlags: 0
  m_PrefabParentObject: {fileID: 0}
  m_PrefabInternal: {fileID: 0}
  m_GameObject: {fileID: 0}
  m_Enabled: 1
  m_EditorHideFlags: 0
  m_Script: {fileID: 11500000, guid: 5cd55caa3a6046c45bf4ef628a274990, type: 3}
  m_Name: -59226
  m_EditorClassIdentifier: 
  OptionTextAsset: {fileID: 0}
  NextNode: {fileID: 0}
--- !u!114 &114588439962859452
MonoBehaviour:
  m_ObjectHideFlags: 0
  m_PrefabParentObject: {fileID: 0}
  m_PrefabInternal: {fileID: 0}
  m_GameObject: {fileID: 0}
  m_Enabled: 1
  m_EditorHideFlags: 0
  m_Script: {fileID: 11500000, guid: 5cd55caa3a6046c45bf4ef628a274990, type: 3}
  m_Name: -57956
  m_EditorClassIdentifier: 
  OptionTextAsset: {fileID: 0}
  NextNode: {fileID: 0}
--- !u!114 &114634763583037388
MonoBehaviour:
  m_ObjectHideFlags: 0
  m_PrefabParentObject: {fileID: 0}
  m_PrefabInternal: {fileID: 0}
  m_GameObject: {fileID: 0}
  m_Enabled: 1
  m_EditorHideFlags: 0
  m_Script: {fileID: 11500000, guid: 5cd55caa3a6046c45bf4ef628a274990, type: 3}
  m_Name: -16104
  m_EditorClassIdentifier: 
  OptionTextAsset: {fileID: 0}
  NextNode: {fileID: 0}
