%YAML 1.1
%TAG !u! tag:unity3d.com,2011:
--- !u!114 &11400000
MonoBehaviour:
  m_ObjectHideFlags: 0
  m_PrefabParentObject: {fileID: 0}
  m_PrefabInternal: {fileID: 0}
  m_GameObject: {fileID: 0}
  m_Enabled: 1
  m_EditorHideFlags: 0
  m_Script: {fileID: 11500000, guid: 82437f0ebef2ca44581dc614f2ad771f, type: 3}
  m_Name: Trier_0811.2
  m_EditorClassIdentifier: 
  DialogTextAsset: {fileID: 11400000, guid: c1967a4522e899d44a5ad0e4db92a08c, type: 2}
  NextNode: {fileID: 11400000, guid: e3f236cac9806e64eab2eeece0a30ac9, type: 2}
