%YAML 1.1
%TAG !u! tag:unity3d.com,2011:
--- !u!114 &11400000
MonoBehaviour:
  m_ObjectHideFlags: 0
  m_PrefabParentObject: {fileID: 0}
  m_PrefabInternal: {fileID: 0}
  m_GameObject: {fileID: 0}
  m_Enabled: 1
  m_EditorHideFlags: 0
  m_Script: {fileID: 11500000, guid: 25324db15d86dee449e3a6a1cb393b33, type: 3}
  m_Name: TR_0405.0_SPS
  m_EditorClassIdentifier: 
  Handle: TR_0405.0_SPS
  __EdTranslations:
  - locale: de
    translation: "He, h\xF6r auf uns so zu nennen!"
  - locale: fr
    translation: "H\xE9, arr\xEAte de nous appeler comme \xE7a\_!"
  - locale: lb
    translation: So, hal op eis esou ze nennen!
  - locale: en
    translation: Hey! Quit calling us that!
