%YAML 1.1
%TAG !u! tag:unity3d.com,2011:
--- !u!114 &11400000
MonoBehaviour:
  m_ObjectHideFlags: 0
  m_PrefabParentObject: {fileID: 0}
  m_PrefabInternal: {fileID: 0}
  m_GameObject: {fileID: 0}
  m_Enabled: 1
  m_EditorHideFlags: 0
  m_Script: {fileID: 11500000, guid: 25324db15d86dee449e3a6a1cb393b33, type: 3}
  m_Name: TR_0201.1_PLR_O2
  m_EditorClassIdentifier: 
  Handle: TR_0201.1_PLR_O2
  __EdTranslations:
  - locale: de
    translation: Farblos werden? Was bedeutet das?
  - locale: fr
    translation: "Des restaples\_? Qu\u2019est-ce que \xE7a veut dire\_?"
  - locale: lb
    translation: "D'Faarf verl\xE9ieren? Wat bedeit dat?"
  - locale: en
    translation: Colourless? What does that mean?
