%YAML 1.1
%TAG !u! tag:unity3d.com,2011:
--- !u!114 &11400000
MonoBehaviour:
  m_ObjectHideFlags: 0
  m_PrefabParentObject: {fileID: 0}
  m_PrefabInternal: {fileID: 0}
  m_GameObject: {fileID: 0}
  m_Enabled: 1
  m_EditorHideFlags: 0
  m_Script: {fileID: 11500000, guid: 25324db15d86dee449e3a6a1cb393b33, type: 3}
  m_Name: TR_0702.1_PO
  m_EditorClassIdentifier: 
  Handle: TR_0702.1_PO
  __EdTranslations:
  - locale: de
    translation: "Ach, der Depp! Zum Gl\xFCck hat er mir vor langer Zeit den zweiten
      Schl\xFCssel gegeben. Ein guter Gesch\xE4ftsmann, aber wenns ums anpacken geht
      \u2026"
  - locale: fr
    translation: "Ah, quelle andouille\_! Heureusement, il m\u2019a donn\xE9 un double
      des cl\xE9s il y a longtemps. C\u2019est un brillant homme d\u2019affaires,
      mais quand il s\u2019agit de mettre la main \xE0 la p\xE2te\u2026"
  - locale: lb
    translation: "Oh, dee Blani! Zum Gl\xE9ck huet hie mir viru laanger Z\xE4it deen
      zweete Schl\xEBssel ginn. E gudde Gesch\xE4ftsmann, awer wann et dr\xEBms geet
      eng Hand unzepaken...\r\r"
  - locale: en
    translation: "Oh, the plonker! Luckily he gave me the spare key a while back.
      A good businessman but when it concerns getting stuck in \u2026"
