%YAML 1.1
%TAG !u! tag:unity3d.com,2011:
--- !u!114 &11400000
MonoBehaviour:
  m_ObjectHideFlags: 0
  m_PrefabParentObject: {fileID: 0}
  m_PrefabInternal: {fileID: 0}
  m_GameObject: {fileID: 0}
  m_Enabled: 1
  m_EditorHideFlags: 0
  m_Script: {fileID: 11500000, guid: 25324db15d86dee449e3a6a1cb393b33, type: 3}
  m_Name: TR_0903.0_GRT
  m_EditorClassIdentifier: 
  Handle: TR_0903.0_GRT
  __EdTranslations:
  - locale: de
    translation: "Himmel, was f\xFCr ein Krach! Das ist ja nicht auszuhalten! Also
      genau richtig, das sollte alle aufgeweckt haben! Nun auf zur Mine!"
  - locale: fr
    translation: "Dieu du ciel\_! Quel vacarme\_! C\u2019est insoutenable\_! C\u2019est
      ce qu\u2019il faut, tout le monde est pr\xE9venu maintenant\_! Allons \xE0 la
      mine\_!"
  - locale: lb
    translation: "Himmel, wat fir e Kam\xE9idi! Dat ass jo net auszehalen! Also genau
      richteg, dat misst all M\xEBnsch erw\xE4cht hunn. Elo lass an d'Minn!"
  - locale: en
    translation: Heavens, what a racket! That's unbearable! But rightly so. That should
      have wakened everyone! Now, off to the mine!
