%YAML 1.1
%TAG !u! tag:unity3d.com,2011:
--- !u!114 &11400000
MonoBehaviour:
  m_ObjectHideFlags: 0
  m_PrefabParentObject: {fileID: 0}
  m_PrefabInternal: {fileID: 0}
  m_GameObject: {fileID: 0}
  m_Enabled: 1
  m_EditorHideFlags: 0
  m_Script: {fileID: 11500000, guid: 25324db15d86dee449e3a6a1cb393b33, type: 3}
  m_Name: TR_0700.0_PO
  m_EditorClassIdentifier: 
  Handle: TR_0700.0_PO
  __EdTranslations:
  - locale: de
    translation: "Buongiorno! Was verschl\xE4gt Dich denn wieder her? Hast Du noch
      nicht genug von meinen Witzen oder lockt Dich die kulinarische Vielfalt Italiens
      wieder zu mir? Setz Dich zu mir!"
  - locale: fr
    translation: "Buongiorno\_! Qu\u2019est-ce qui t\u2019am\xE8ne de nouveau\_? Tu
      n\u2019as pas encore eu assez de mes blagues\_? Ou bien est-ce la cuisine italienne
      qui t\u2019attire vers moi\_? Viens t\u2019asseoir\_!"
  - locale: lb
    translation: "Buongiorno! Wat br\xE9ngt dech dann zr\xE9ck heihin? Hues du es
      nach net genuch vu menge Witzer oder lackelt dech d\xE9i kulinaresch Diversit\xE9it
      aus Italien zr\xE9ck bei mech? Setz dech bei mech!\r\r"
  - locale: en
    translation: Buongiorno! What brings you hear again? Did you not hear enough of
      my jokes, or was it Italy's culinary variety that lured you back to me? Have
      a seat next to me.
