%YAML 1.1
%TAG !u! tag:unity3d.com,2011:
--- !u!114 &11400000
MonoBehaviour:
  m_ObjectHideFlags: 0
  m_PrefabParentObject: {fileID: 0}
  m_PrefabInternal: {fileID: 0}
  m_GameObject: {fileID: 0}
  m_Enabled: 1
  m_EditorHideFlags: 0
  m_Script: {fileID: 11500000, guid: 25324db15d86dee449e3a6a1cb393b33, type: 3}
  m_Name: TR_0901.1_GRT_O
  m_EditorClassIdentifier: 
  Handle: TR_0901.1_GRT_O
  __EdTranslations:
  - locale: de
    translation: "K\xF6nnen sie uns da drinnen \xFCberhaupt h\xF6ren?"
  - locale: fr
    translation: "Ils peuvent nous entendre l\xE0 en bas\_?"
  - locale: lb
    translation: "K\xEBnnen si eis vun do bannen iwwerhaapt h\xE9ieren?"
  - locale: en
    translation: Can you hear us at all in there?
