%YAML 1.1
%TAG !u! tag:unity3d.com,2011:
--- !u!114 &11400000
MonoBehaviour:
  m_ObjectHideFlags: 0
  m_PrefabParentObject: {fileID: 0}
  m_PrefabInternal: {fileID: 0}
  m_GameObject: {fileID: 0}
  m_Enabled: 1
  m_EditorHideFlags: 0
  m_Script: {fileID: 11500000, guid: 25324db15d86dee449e3a6a1cb393b33, type: 3}
  m_Name: TR_0302.1_SOL
  m_EditorClassIdentifier: 
  Handle: TR_0302.1_SOL
  __EdTranslations:
  - locale: de
    translation: "Ja, nat\xFCrlich! Luxemburg! Da wollten wir ja auch hin. Jaa, so
      langsam kommt die Erinnerung \u2026"
  - locale: fr
    translation: "Oui, bien s\xFBr\_! Luxembourg\_! C\u2019est justement l\xE0 qu\u2019on
      voulait aller\_! Oui, les souvenirs me reviennent\u2026 "
  - locale: lb
    translation: "Jo, natierlech! L\xEBtzebuerg! Do w\xEBlle mir jo och hin. Jo, sou
      lues er\xEBnneren ech mech..."
  - locale: en
    translation: 'Yes, of course! Luxembourg! That''s where we wanted to go. Yes,
      it''s slowly coming back to me ... '
