%YAML 1.1
%TAG !u! tag:unity3d.com,2011:
--- !u!114 &11400000
MonoBehaviour:
  m_ObjectHideFlags: 0
  m_PrefabParentObject: {fileID: 0}
  m_PrefabInternal: {fileID: 0}
  m_GameObject: {fileID: 0}
  m_Enabled: 1
  m_EditorHideFlags: 0
  m_Script: {fileID: 11500000, guid: 25324db15d86dee449e3a6a1cb393b33, type: 3}
  m_Name: TR_0303.0_SOL
  m_EditorClassIdentifier: 
  Handle: TR_0303.0_SOL
  __EdTranslations:
  - locale: de
    translation: "Wir waren zu dritt. Wir waren immer drei. Bis der alte Jacques bei
      einem Minenungl\xFCck farblos wurde nat\xFCrlich. An dem Tag, der auf der S\xE4ule
      abgebildet ist, ging eine Mutter vor uns ... Was hatte sie dabei?"
  - locale: fr
    translation: "Nous \xE9tions trois. Nous avons toujours \xE9t\xE9 trois. Jusqu\u2019\xE0
      ce que le vieux Jacques devienne p\xE2le dans un accident minier. Le jour qui
      est repr\xE9sent\xE9 sur la colonne, une m\xE8re marchait devant nous\u2026
      qu\u2019est-ce qu\u2019elle portait\_?"
  - locale: lb
    translation: "Mir waren zu dr\xE4i. Mir waren \xEBmmer zu dr\xE4i. Bis den ale
      Jacques bei engem Minnenongl\xE9ck d'Faarf verluer huet, natierlech. Deen Dag,
      deen op der Sail duergestallt ass, ass eng Mamm vun ons gaangen... Wat hat si
      dob\xE4i?"
  - locale: en
    translation: "There were three of us. There were always three of us. That's until
      old Jacques became colourless in a mining incident of course. On the day, which
      the column depicts, a mother was passing by in front of us \u2026 What did she
      have with her?"
