%YAML 1.1
%TAG !u! tag:unity3d.com,2011:
--- !u!114 &11400000
MonoBehaviour:
  m_ObjectHideFlags: 0
  m_PrefabParentObject: {fileID: 0}
  m_PrefabInternal: {fileID: 0}
  m_GameObject: {fileID: 0}
  m_Enabled: 1
  m_EditorHideFlags: 0
  m_Script: {fileID: 11500000, guid: 25324db15d86dee449e3a6a1cb393b33, type: 3}
  m_Name: TR_0705.2_PO
  m_EditorClassIdentifier: 
  Handle: TR_0705.2_PO
  __EdTranslations:
  - locale: de
    translation: 'Nein, das ist er nicht... Schau doch bitte nochmal genauer. '
  - locale: fr
    translation: "Non, ce n\u2019est pas \xE7a\u2026 Regarde un peu mieux."
  - locale: lb
    translation: "Nee, dat ass en net... Kuck dach wann ech gelift nach eng K\xE9ier
      m\xE9i genau."
  - locale: en
    translation: "No, it's not that \u2026 take a closer look."
