%YAML 1.1
%TAG !u! tag:unity3d.com,2011:
--- !u!114 &11400000
MonoBehaviour:
  m_ObjectHideFlags: 0
  m_PrefabParentObject: {fileID: 0}
  m_PrefabInternal: {fileID: 0}
  m_GameObject: {fileID: 0}
  m_Enabled: 1
  m_EditorHideFlags: 0
  m_Script: {fileID: 11500000, guid: 25324db15d86dee449e3a6a1cb393b33, type: 3}
  m_Name: TR_0900.0_GRT
  m_EditorClassIdentifier: 
  Handle: TR_0900.0_GRT
  __EdTranslations:
  - locale: de
    translation: "So, da sind wir. Aber wo ist der Rest der Mannschaft? Willst Du
      Bergknecht die M\xE4nner da alleine rausholen?"
  - locale: fr
    translation: "Nous voici. Mais o\xF9 est le reste de l\u2019\xE9quipe\_? Tu comptes
      lib\xE9rer les hommes \xE0 toi tout seul, galibot\_?"
  - locale: lb
    translation: "Sou, do si mir. M\xE4 wou ass de Rescht vun der Mannschaft? W\xEBlls
      du Biergkniecht d\xE9i M\xE4nner do eleng eraushuelen?"
  - locale: en
    translation: So, we're here. But where is is the rest of the team? Do you, rookie
      miner, want to get the men out yourself?
