%YAML 1.1
%TAG !u! tag:unity3d.com,2011:
--- !u!114 &11400000
MonoBehaviour:
  m_ObjectHideFlags: 0
  m_PrefabParentObject: {fileID: 0}
  m_PrefabInternal: {fileID: 0}
  m_GameObject: {fileID: 0}
  m_Enabled: 1
  m_EditorHideFlags: 0
  m_Script: {fileID: 11500000, guid: dc0b465373f96464fab6574722c4d3c1, type: 3}
  m_Name: WegpunkteTrier
  m_EditorClassIdentifier: 
  m_Waypoints:
  - Name: Handwerksbrunnen
    Location:
      latitude: 49.759033
      longitude: 6.632395
      provider: 
      accuracy: 0
      numSatellites: 0
    WaypointType: 0
    Radius: 10
    RoutingBackground: {fileID: 0}
    Game:
      GameScene: 
    Dialog:
      RootNode: {fileID: 11400000, guid: 0ed2db1e0e802084c88d0bff0abb830f, type: 2}
  - Name: Viehmarkt
    Location:
      latitude: 49.758596
      longitude: 6.632611
      provider: 
      accuracy: 0
      numSatellites: 0
    WaypointType: 0
    Radius: 10
    RoutingBackground: {fileID: 0}
    Game:
      GameScene: 
    Dialog:
      RootNode: {fileID: 11400000, guid: 9a8a6de7d75f5ea4fac68a7f7a4a8bf2, type: 2}
  - Name: Heuschreckenbrunnen
    Location:
      latitude: 0
      longitude: 0
      provider: 
      accuracy: 0
      numSatellites: 0
    WaypointType: 0
    Radius: 10
    RoutingBackground: {fileID: 21300000, guid: da01f7dfc3eac634c89ce60f50efff37,
      type: 3}
    Game:
      GameScene: Dbg_GameScene
    Dialog:
      RootNode: {fileID: 11400000, guid: adf8da31907677d46a62c4b69e9f529f, type: 2}
  - Name: Hochbunker
    Location:
      latitude: 49.75832
      longitude: 6.633004
      provider: 
      accuracy: 0
      numSatellites: 0
    WaypointType: 0
    Radius: 10
    RoutingBackground: {fileID: 21300000, guid: 08bfab2c4a6de6e45b71cac48a05304f,
      type: 3}
    Game:
      GameScene: Dbg_GameScene
    Dialog:
      RootNode: {fileID: 11400000, guid: c621e7a937549134da948c2d9d0cbcd2, type: 2}
  - Name: KarlsMarxHaus
    Location:
      latitude: 49.757803
      longitude: 6.634701
      provider: 
      accuracy: 0
      numSatellites: 0
    WaypointType: 0
    Radius: 10
    RoutingBackground: {fileID: 21300000, guid: a1742f0b3b53bd4439ddf3a91d71822f,
      type: 3}
    Game:
      GameScene: Dbg_GameScene
    Dialog:
      RootNode: {fileID: 11400000, guid: a9a059b1ee2ed9e4ab98dd0e6d227d1a, type: 2}
  - Name: Georgsbrunnen
    Location:
      latitude: 49.758577
      longitude: 6.635208
      provider: 
      accuracy: 0
      numSatellites: 0
    WaypointType: 0
    Radius: 10
    RoutingBackground: {fileID: 21300000, guid: e1f3c704bd601ce4f8232453348d0fdd,
      type: 3}
    Game:
      GameScene: Dbg_GameScene
    Dialog:
      RootNode: {fileID: 11400000, guid: aa889d308bc50c24cb847ce711fb0159, type: 2}
  - Name: EhemaligesRathaus
    Location:
      latitude: 0
      longitude: 0
      provider: 
      accuracy: 0
      numSatellites: 0
    WaypointType: 0
    Radius: 10
    RoutingBackground: {fileID: 0}
    Game:
      GameScene: Dbg_GameScene
    Dialog:
      RootNode: {fileID: 11400000, guid: 35ec3e45e2adf4c4da4cc76a0fb23ddc, type: 2}
  - Name: Glockenspiel
    Location:
      latitude: 49.758674
      longitude: 6.635648
      provider: 
      accuracy: 0
      numSatellites: 0
    WaypointType: 0
    Radius: 10
    RoutingBackground: {fileID: 0}
    Game:
      GameScene: Dbg_GameScene
    Dialog:
      RootNode: {fileID: 11400000, guid: 9257e1c7ac5598b48ab43a202086e2cb, type: 2}
  - Name: BrunnenHauptmarkt
    Location:
      latitude: 49.758803
      longitude: 6.634932
      provider: 
      accuracy: 0
      numSatellites: 0
    WaypointType: 0
    Radius: 10
    RoutingBackground: {fileID: 21300000, guid: 9b145f4fb7973f145a1231332067d031,
      type: 3}
    Game:
      GameScene: Dbg_GameScene
    Dialog:
      RootNode: {fileID: 11400000, guid: 7bef7212791f95748a253877702a6b7c, type: 2}
  - Name: Domfreihof
    Location:
      latitude: 49.75906
      longitude: 6.634319
      provider: 
      accuracy: 0
      numSatellites: 0
    WaypointType: 0
    Radius: 10
    RoutingBackground: {fileID: 21300000, guid: e2572eedc70637e42b1754bebca73a60,
      type: 3}
    Game:
      GameScene: Dbg_GameScene
    Dialog:
      RootNode: {fileID: 11400000, guid: f9c14aac58d228a4caf22568ddba2a35, type: 2}
  - Name: Basilika
    Location:
      latitude: 0
      longitude: 0
      provider: 
      accuracy: 0
      numSatellites: 0
    WaypointType: 0
    Radius: 10
    RoutingBackground: {fileID: 21300000, guid: 9c972337317918840b937d99ebed6a82,
      type: 3}
    Game:
      GameScene: Dbg_GameScene
    Dialog:
      RootNode: {fileID: 11400000, guid: e6a1a8d3b46a8834d855b65d486a1973, type: 2}
  - Name: Handerksbrunnen
    Location:
      latitude: 49.759006
      longitude: 6.632563
      provider: 
      accuracy: 0
      numSatellites: 0
    WaypointType: 0
    Radius: 10
    RoutingBackground: {fileID: 0}
    Game:
      GameScene: Dbg_GameScene
    Dialog:
      RootNode: {fileID: 11400000, guid: a2312271920810044ad7f3e39c859e1e, type: 2}
  - Name: Neustrasse
    Location:
      latitude: 0
      longitude: 0
      provider: 
      accuracy: 0
      numSatellites: 0
    WaypointType: 0
    Radius: 10
    RoutingBackground: {fileID: 0}
    Game:
      GameScene: Dbg_GameScene
    Dialog:
      RootNode: {fileID: 11400000, guid: 361d7385c98b53f4e8633963bc8356eb, type: 2}
