%YAML 1.1
%TAG !u! tag:unity3d.com,2011:
--- !u!114 &11400000
MonoBehaviour:
  m_ObjectHideFlags: 0
  m_PrefabParentObject: {fileID: 0}
  m_PrefabInternal: {fileID: 0}
  m_GameObject: {fileID: 0}
  m_Enabled: 1
  m_EditorHideFlags: 0
  m_Script: {fileID: 11500000, guid: 0beaf17d02719a74d9e347298b3d989a, type: 3}
  m_Name: 1305-0_NeustrasseStart
  m_EditorClassIdentifier: 
  ReplaceRouteState:
    p_DialogTextAsset:
      value: {fileID: 0}
    p_PersonName:
      value: Karl Marx
    p_DialogBackground:
      value: {fileID: 2800000, guid: 97c5c5e94f0d58443b2736b9625daeef, type: 3}
    p_DialogPartner:
      value: {fileID: 2800000, guid: 58680e8695b67a04886259a20d64ea66, type: 3}
  NextNode: {fileID: 11400000, guid: 6230cd9983c364f4aa8d359dcaa6f83d, type: 2}
