%YAML 1.1
%TAG !u! tag:unity3d.com,2011:
--- !u!114 &11400000
MonoBehaviour:
  m_ObjectHideFlags: 0
  m_PrefabParentObject: {fileID: 0}
  m_PrefabInternal: {fileID: 0}
  m_GameObject: {fileID: 0}
  m_Enabled: 1
  m_EditorHideFlags: 0
  m_Script: {fileID: 11500000, guid: b867a37348034294c8b15ecbefba51ba, type: 3}
  m_Name: $DialogTemplate
  m_EditorClassIdentifier: 
  Setups:
  - m_Path: Assets/Scenes/DebugDecorator.unity
    m_IsLoaded: 1
    m_IsActive: 1
  - m_Path: Assets/Scenes/DialogTemplate.unity
    m_IsLoaded: 1
    m_IsActive: 0
